<?xml version="1.0" encoding="UTF-8" standalone="no"?>
<!DOCTYPE svg PUBLIC "-//W3C//DTD SVG 1.1//EN" "http://www.w3.org/Graphics/SVG/1.1/DTD/svg11.dtd">
<svg xmlns="http://www.w3.org/2000/svg">
<metadata/>
<defs>
<font id="artill_clean_weather_iconsRg" horiz-adv-x="1386">
<font-face units-per-em="2048" ascent="1638" descent="-410"/>
<missing-glyph horiz-adv-x="1228"/>
<glyph horiz-adv-x="2048"/>
<glyph horiz-adv-x="2048"/>
<glyph unicode="
" horiz-adv-x="2048"/>
<glyph unicode=" " horiz-adv-x="1228"/>
<glyph unicode="	" horiz-adv-x="1228"/>
<glyph unicode=" " horiz-adv-x="1228"/>
<glyph unicode="!" horiz-adv-x="1624" d="M102 221q0 21 14.5 35t35.5 14h1071q21 0 35 -14t14 -35q0 -20 -14.5 -33.5t-34.5 -13.5h-1071q-21 0 -35.5 13.5t-14.5 33.5zM252 399q0 20 14.5 33.5t34.5 13.5h1071q20 0 33.5 -13.5t13.5 -33.5t-13.5 -34.5t-33.5 -14.5h-1071q-20 0 -34.5 14.5t-14.5 34.5zM260 539 q22 73 77 125t128 69q26 117 119.5 192.5t214.5 75.5q64 0 131 -26q51 84 141.5 122t185.5 15l48 -14q11 -4 8 -13l-8 -34q-19 -78 21.5 -147t117.5 -91l35 -12q4 0 7 -4t1 -9l-10 -38q-22 -90 -86 -148q6 -10 26 -61q3 -13 -8 -13h-82q-6 0 -12 9q-22 48 -67 78t-101 30 h-92q-11 0 -11 10l-4 33q-10 92 -79.5 153.5t-161.5 61.5q-94 0 -163.5 -62t-78.5 -155l-4 -29q0 -10 -10 -10l-31 -4q-49 -4 -89.5 -33t-60.5 -73q-6 -9 -12 -9h-82q-11 0 -8 13v-2zM352 45q0 20 14.5 33.5t34.5 13.5h1072q20 0 34.5 -13.5t14.5 -33.5t-14.5 -34.5 t-34.5 -14.5h-1072q-20 0 -34.5 14.5t-14.5 34.5zM1014 924q87 -71 114 -183h19q102 0 180 -65q29 29 43 61q-81 38 -127 116.5t-41 168.5q-57 5 -108 -22t-80 -76z"/>
<glyph unicode="&quot;" horiz-adv-x="1081" d="M116 326q30 -113 115 -197q128 -129 309.5 -129t309.5 129q85 84 115 196.5t0 225.5t-115 197q-128 129 -309.5 129t-309.5 -129q-85 -84 -115 -196.5t0 -225.5zM199 438.5q0 141.5 100 241.5t241.5 100t241.5 -100t100 -241.5t-100 -241.5t-241.5 -100t-241.5 100 t-100 241.5zM397 305q-1 -6 2 -9t9 -1l344 141q6 2 6 7t-6 8l-131 59q-7 3 -9 8l-59 131q-3 6 -8 6t-6 -6z"/>
<glyph unicode="#" horiz-adv-x="1081" d="M102 438q0 -181 128.5 -309.5t310.5 -128.5q181 0 309.5 128t128.5 310t-128.5 310.5t-309.5 128.5t-310 -128.5t-129 -310.5zM199 438q0 141 100.5 241.5t241.5 100.5t241.5 -100.5t100.5 -241.5t-100.5 -241.5t-241.5 -100.5t-241.5 100.5t-100.5 241.5zM389 291 q-2 -6 1 -9.5t9 -0.5l136 51q6 3 12 0l135 -51q6 -3 9 0.5t1 9.5l-145 342q-1 6 -6 6t-6 -6z"/>
<glyph unicode="'" horiz-adv-x="1081" d="M102 438q0 -181 128.5 -309.5t310.5 -128.5q181 0 309.5 128t128.5 310t-128.5 310.5t-309.5 128.5t-310 -128.5t-129 -310.5zM199 438q0 141 100.5 241.5t241.5 100.5t241.5 -100.5t100.5 -241.5t-100.5 -241.5t-241.5 -100.5t-241.5 100.5t-100.5 241.5zM340 438 q0 -4 6 -6l342 -145q6 -2 9.5 1t0.5 9l-51 135q-3 6 0 12l51 136q3 6 -0.5 9t-9.5 1l-342 -146q-6 -2 -6 -6z"/>
<glyph unicode="(" horiz-adv-x="815" d="M104 351q0 21 13 34l145 147q15 14 35.5 14t34.5 -14q14 -15 14 -35.5t-14 -33.5l-64 -64h398q20 0 33.5 -14.5t13.5 -34.5t-13.5 -33.5t-33.5 -13.5h-398l64 -65q14 -14 14 -34t-14 -34q-21 -17 -39 -15t-31 15l-145 147q-13 13 -13 34z"/>
<glyph unicode=")" horiz-adv-x="817" d="M102 350q0 20 15 34.5t35 14.5h397l-64 64q-15 13 -15 33.5t15 35.5q13 14 34 14t34 -14l147 -147q14 -13 14 -34t-14 -34l-147 -147q-16 -14 -37 -13t-31 13q-15 14 -15 34t15 34l64 65h-397q-21 0 -35.5 13.5t-14.5 33.5z"/>
<glyph unicode="*" d="M102 281q0 99 61.5 175.5t155.5 98.5q26 117 119.5 192.5t214.5 75.5q118 0 210 -73.5t120 -186.5h18q117 0 200 -82.5t83 -199.5q0 -114 -79 -195t-193 -86q-11 0 -11 10v76q0 10 11 10q74 5 125 58.5t51 126.5q0 76 -55 131t-132 55h-92q-10 0 -10 10l-4 33 q-10 92 -79.5 153.5t-162.5 61.5q-94 0 -163 -62t-78 -155l-4 -29q0 -10 -11 -10l-30 -4q-71 -6 -119.5 -59t-48.5 -125q0 -73 51 -126.5t125 -58.5q10 0 10 -10v-76q0 -10 -10 -10q-114 5 -193.5 86t-79.5 195zM457 209q0 89 56.5 154t141.5 79l-20 21q-13 13 -13 33t13 34 q15 15 35 15t35 -15l104 -104q14 -14 14 -35q0 -19 -14 -33l-104 -106q-21 -14 -40 -13.5t-30 13.5q-13 17 -13 36.5t13 33.5l24 22q-45 -4 -75.5 -44.5t-30.5 -90.5q0 -57 41 -98t98 -41q58 0 98.5 41t40.5 98q0 20 15 34.5t35 14.5t34.5 -14.5t14.5 -34.5 q0 -97 -70 -166.5t-168 -69.5q-97 0 -166 69.5t-69 166.5z"/>
<glyph unicode="," horiz-adv-x="1495" d="M102 334q0 20 15 34.5t35 14.5h796q63 0 108.5 -45.5t45.5 -108.5t-45.5 -107t-108.5 -44q-61 0 -106 45q-15 14 -15 33.5t15 33.5q14 14 34 14t33 -14q16 -16 39 -16t39.5 16t16.5 39t-16.5 39.5t-39.5 16.5h-796q-20 0 -35 14.5t-15 34.5zM102 512q0 20 15 34.5 t35 14.5h1087q23 0 39 16t16 39t-16 39.5t-39 16.5q-22 0 -39 -17q-14 -13 -34 -13t-33 13q-15 13 -15 34t15 36q43 43 106 43t108.5 -44.5t45.5 -107.5t-45.5 -107t-108.5 -44h-1087q-21 0 -35.5 13.5t-14.5 33.5z"/>
<glyph unicode="." horiz-adv-x="1081" d="M116 326q30 -113 115 -197q128 -129 309.5 -129t309.5 129q85 84 115 196.5t0 225.5t-115 197q-128 129 -309.5 129t-309.5 -129q-85 -84 -115 -196.5t0 -225.5zM199 438.5q0 141.5 100 241.5t241.5 100t241.5 -100t100 -241.5t-100 -241.5t-241.5 -100t-241.5 100 t-100 241.5zM324 433.5q0 -4.5 6 -7.5l131 -59q5 -2 8 -9l59 -131q3 -6 8.5 -6t6.5 6l141 344q2 6 -1 9t-9 2l-344 -142q-6 -2 -6 -6.5z"/>
<glyph unicode="/" d="M102 283q0 99 61.5 175.5t155.5 98.5q26 116 119.5 191t214.5 75q118 0 210 -73t120 -187h18q117 0 200 -81.5t83 -198.5q0 -114 -79 -196.5t-193 -86.5q-11 0 -11 10v76q0 10 11 10q73 4 124.5 58.5t51.5 128.5q0 75 -55.5 129.5t-131.5 54.5h-92q-10 0 -10 10l-4 33 q-10 92 -80 154.5t-162 62.5q-94 0 -163 -62.5t-78 -154.5l-4 -33q0 -10 -11 -10h-30q-71 -8 -119.5 -60.5t-48.5 -123.5q0 -74 51.5 -128.5t124.5 -58.5q10 0 10 -10v-76q0 -10 -10 -10q-114 5 -193.5 87t-79.5 196z"/>
<glyph unicode="0" horiz-adv-x="1308" d="M102 49q0 -20 15 -34.5t35 -14.5h1005q20 0 34.5 14.5t14.5 34.5t-14.5 33.5t-34.5 13.5h-1005q-21 0 -35.5 -13.5t-14.5 -33.5zM210 503q0 -21 13 -34l82 -82q14 -14 35 -14.5t33 14.5q15 13 15 34t-15 34l-82 82q-13 15 -33.5 15t-34.5 -15q-13 -13 -13 -34zM371 197 q28 92 105.5 150.5t176.5 58.5q100 0 178.5 -58.5t106.5 -150.5q3 -13 -8 -13h-82q-6 0 -12 9q-25 52 -74 83t-109 31q-59 0 -107 -31t-73 -83q-6 -9 -12 -9h-82q-11 0 -8 13zM606 551q0 -20 13.5 -34.5t33.5 -14.5q21 0 35 14t14 35v117q0 21 -14 35t-35 14 q-20 0 -33.5 -14.5t-13.5 -34.5v-117zM920 421q0 -21 14 -34q21 -17 39 -15t31 15l81 82q13 13 13 34t-13 34q-13 15 -33 15t-34 -15l-84 -82q-14 -13 -14 -34z"/>
<glyph unicode="1" horiz-adv-x="1220" d="M0 588q0 -20 14.5 -34.5t34.5 -14.5h117q20 0 33.5 14.5t13.5 34.5t-13.5 34.5t-33.5 14.5h-117q-20 0 -34.5 -14.5t-14.5 -34.5zM164 190q0 -20 14 -34q35 -27 70 0l82 82q14 15 14 35.5t-14 33.5t-34 13t-34 -13l-84 -82q-14 -15 -14 -35zM164 984.5q0 -20.5 14 -34.5 l84 -82q14 -14 34 -14t34 14t14 34t-14 34l-82 84q-14 14 -34.5 14t-35.5 -14q-14 -15 -14 -35.5zM311 588q0 -124 88 -211.5t211 -87.5t211 87.5t88 211.5q0 123 -88 211t-211 88t-211 -88t-88 -211zM408 588q0 83 59.5 141.5t142.5 58.5q84 0 143.5 -58.5t59.5 -141.5 q0 -84 -59.5 -143.5t-143.5 -59.5t-143 59.5t-59 143.5zM561 27q0 -21 14.5 -35.5t34.5 -14.5t34.5 14.5t14.5 35.5v114q0 21 -14 35t-35 14t-35 -14t-14 -35v-114zM561 1032q0 -20 14.5 -33.5t34.5 -13.5t34.5 13.5t14.5 33.5v117q0 20 -14.5 34.5t-34.5 14.5t-34.5 -14.5 t-14.5 -34.5v-117zM878 273.5q0 -20.5 13 -35.5l82 -82q35 -27 69 0q14 14 14 34t-14 35l-84 82q-14 13 -34 13t-33 -13t-13 -33.5zM878 902q0 -20 13 -34t32.5 -14t34.5 14l84 82q14 14 14 34.5t-14 35.5q-15 14 -35.5 14t-33.5 -14l-82 -84q-13 -14 -13 -34zM1008 588 q0 -20 13.5 -34.5t33.5 -14.5h116q20 0 35 14.5t15 34.5t-15 34.5t-35 14.5h-116q-20 0 -33.5 -14.5t-13.5 -34.5z"/>
<glyph unicode="2" horiz-adv-x="1425" d="M102 588q0 22 14 35.5t36 13.5h84q21 0 35 -14t14 -35q0 -20 -14.5 -33.5t-34.5 -13.5h-84q-22 0 -36 13.5t-14 33.5zM190 279q0 59 34.5 104.5t90.5 62.5q24 82 99 125v17q0 124 87 211.5t212 87.5q123 0 211 -87.5t88 -211.5q0 -76 -36.5 -142t-98.5 -106 q10 -25 10 -61q0 -74 -51.5 -126.5t-124.5 -52.5h-342q-73 0 -126 53t-53 126zM268 986q0 20 13 34t33.5 14t35.5 -14l82 -82q14 -14 14 -35t-14 -35q-35 -26 -70 0l-81 84q-13 14 -13 34zM289 279q0 -34 23 -58t57 -24h342q32 0 56 24t24 58q0 32 -24 55.5t-56 23.5h-66 q-8 0 -12 11l-4 32q-5 43 -37 72t-76 29q-43 0 -74 -29t-36 -72l-5 -28q0 -11 -10 -11l-31 -4q-31 -3 -51 -25.5t-20 -53.5zM510 598h6q69 0 124 -39t77 -104q55 0 102 -37q43 27 68.5 72t25.5 98q0 85 -58.5 144t-141.5 59q-82 0 -140 -55.5t-63 -137.5zM664 1034v117 q0 20 14.5 33.5t34.5 13.5t34.5 -13.5t14.5 -33.5v-117q0 -20 -14.5 -34.5t-34.5 -14.5t-34.5 14.5t-14.5 34.5zM980 274q0 20 13 35q13 13 34 13t34 -13l84 -84q13 -13 13 -33t-13 -34q-21 -17 -39 -15t-31 15l-82 82q-13 14 -13 34zM980 903.5q0 20.5 13 34.5l82 82 q13 14 34 14t36 -14q13 -14 13 -34t-13 -34l-84 -84q-13 -14 -34 -14t-34 14q-13 15 -13 35.5zM1110 588q0 22 13.5 35.5t33.5 13.5h117q21 0 35 -14t14 -35q0 -20 -14.5 -33.5t-34.5 -13.5h-117q-20 0 -33.5 13.5t-13.5 33.5z"/>
<glyph unicode="3" horiz-adv-x="1679" d="M102 283q0 -117 83 -200t200 -83h616q117 0 200 83t83 200t-83 199.5t-200 82.5h-18q-28 113 -120 185.5t-210 72.5q-121 0 -213.5 -74.5t-117.5 -191.5q-96 -22 -158 -98.5t-62 -175.5zM199 283q0 72 48.5 125t119.5 59l30 4q11 0 11 10l4 29q9 93 78 155t163 62 t163 -61.5t79 -155.5l4 -33q0 -10 10 -10h92q77 0 132 -54t55 -130t-55 -130.5t-132 -54.5h-616q-77 0 -131.5 54.5t-54.5 130.5zM786 862q91 105 232 105q103 0 186 -64.5t109 -163.5h10q105 0 179.5 -74.5t74.5 -179.5q0 -100 -69 -173t-169 -79q-10 0 -10 11v75 q0 11 10 11q60 6 101 50.5t41 104.5q0 64 -46.5 110t-111.5 46h-94l-6 43q-7 79 -66 132.5t-139 53.5q-81 0 -141 -57q-5 -5 -15 -2q-41 25 -71 37q-15 4 -5 14z"/>
<glyph unicode="4" horiz-adv-x="829" d="M102 106l138 367h-121q-11 0 -8 12l122 326q5 8 13 8h168q14 0 8 -12l-131 -240h125q6 0 7.5 -3.5t-1.5 -8.5l-303 -449h-17zM477 385l105 279h-90q-12 0 -9 12l92 242q5 8 13 8h121q15 0 8 -13l-96 -178h92q6 0 7.5 -3.5t-1.5 -8.5l-230 -338h-12z"/>
<glyph unicode="5" horiz-adv-x="641" d="M102 666q0 -34 24 -58t58 -24t57 24t23 58q0 24 -20 58t-40 56l-20 23q-9 -9 -22.5 -24.5t-36.5 -52t-23 -60.5zM272 438q0 -55 39 -94t95 -39t94.5 38.5t38.5 94.5q0 25 -13.5 56t-33.5 57.5t-39.5 49t-32.5 35.5l-14 13q-5 -5 -14.5 -13.5t-32.5 -34.5t-40.5 -50.5 t-32 -56t-14.5 -56.5zM356 817q0 -23 16 -38t40 -15q22 0 37.5 15t15.5 38q0 16 -13.5 39t-26.5 38l-13 15q-56 -55 -56 -92z"/>
<glyph unicode="6" horiz-adv-x="802" d="M102 524q0 -124 87 -211.5t212 -87.5q123 0 210.5 87.5t86.5 211.5v41q0 10 -10 10l-35 3q-79 3 -134.5 59.5t-57.5 136.5l-2 37q0 9 -10 12h-48q-124 0 -211.5 -88t-87.5 -211zM199 524q0 75 49 131.5t121 67.5q17 -88 79.5 -152.5t151.5 -83.5q-14 -71 -70 -118 t-129 -47q-83 0 -142.5 59.5t-59.5 142.5z"/>
<glyph unicode="7" horiz-adv-x="1425" d="M102 324q0 -20 15 -35t35 -15h116q20 0 33.5 14.5t13.5 35.5q0 20 -13.5 34.5t-33.5 14.5h-116q-20 0 -35 -14.5t-15 -34.5zM268 721.5q0 -20.5 13 -35.5l84 -82q15 -14 34 -14t33 14t14 34.5t-14 35.5l-82 82q-14 14 -34 14t-35 -14q-13 -14 -13 -34.5zM367 49 q0 -20 14.5 -34.5t34.5 -14.5h162q6 0 14 4l119 113l120 -113q8 -4 15 -4h168q20 0 34.5 14.5t14.5 34.5t-14.5 33.5t-34.5 13.5h-137l-158 146q-9 6 -17 0l-155 -146h-131q-20 0 -34.5 -13.5t-14.5 -33.5zM414 324q0 124 88 211.5t211 87.5t211 -87.5t88 -211.5 q0 -71 -31 -131q-3 -9 -12 -9h-95q-6 0 -7.5 4t1.5 9q47 57 47 127q0 84 -59 143t-143 59t-143.5 -59t-59.5 -143q0 -70 47 -127q3 -5 1.5 -9t-7.5 -4h-94q-10 0 -13 9q-30 59 -30 131zM664 770q0 -21 14 -35t35 -14t35 14t14 35v115q0 21 -14 35t-35 14t-35 -14t-14 -35 v-115zM980 638.5q0 -20.5 13 -34.5t33 -14t35 14l84 82q13 15 13 35.5t-13 34.5q-15 14 -36 14t-34 -14l-82 -82q-13 -15 -13 -35.5zM1110 324q0 -21 13.5 -35.5t33.5 -14.5h117q20 0 34.5 15t14.5 35t-14.5 34.5t-34.5 14.5h-117q-20 0 -33.5 -14.5t-13.5 -34.5z"/>
<glyph unicode="8" horiz-adv-x="1425" d="M102 322q0 -20 15 -35t35 -15h116q20 0 33.5 14.5t13.5 35.5q0 20 -13.5 33.5t-33.5 13.5h-116q-21 0 -35.5 -13.5t-14.5 -33.5zM268 718q0 -20 13 -34l84 -82q15 -14 34 -14t33 14q35 35 0 68l-82 82q-14 15 -34 15t-35 -15q-13 -14 -13 -34zM367 49q0 -20 14.5 -34.5 t34.5 -14.5h131l155 -143q8 -6 17 0l158 143h135q20 0 34.5 14.5t14.5 34.5t-14.5 34.5t-34.5 14.5h-166q-7 0 -15 -4l-120 -112l-119 112q-8 4 -14 4h-162q-20 0 -34.5 -14.5t-14.5 -34.5zM414 322q0 123 88 211t211 88t211 -88t88 -211q0 -72 -31 -132q-3 -8 -12 -8h-95 q-6 0 -7.5 4t3.5 9q45 55 45 127q0 83 -59.5 141.5t-142.5 58.5q-84 0 -143.5 -58.5t-59.5 -141.5q0 -72 45 -127q5 -5 3.5 -9t-7.5 -4h-94q-10 0 -13 8q-30 58 -30 132zM664 766q0 -20 14.5 -34.5t34.5 -14.5t34.5 14.5t14.5 34.5v117q0 20 -14.5 34.5t-34.5 14.5 t-34.5 -14.5t-14.5 -34.5v-117zM980 636q0 -20 13 -34t33 -14t35 14l84 82q13 14 13 34t-13 34q-15 15 -36 15t-34 -15l-82 -82q-13 -14 -13 -34zM1110 322q0 -21 13.5 -35.5t33.5 -14.5h117q20 0 34.5 15t14.5 35t-14.5 33.5t-34.5 13.5h-117q-20 0 -33.5 -13.5 t-13.5 -33.5z"/>
<glyph unicode="9" horiz-adv-x="1425" d="M102 334q0 -20 15 -34.5t35 -14.5h116q20 0 33.5 14.5t13.5 34.5t-13.5 33.5t-33.5 13.5h-116q-21 0 -35.5 -13.5t-14.5 -33.5zM154 49q0 -20 14.5 -34.5t34.5 -14.5h1020q20 0 34.5 14.5t14.5 34.5t-14.5 33.5t-34.5 13.5h-1020q-20 0 -34.5 -13.5t-14.5 -33.5zM268 730 q0 -20 13 -34l84 -82q13 -14 33 -14t34 14t14 34t-14 34l-82 82q-14 15 -34 15t-35 -15q-13 -14 -13 -34zM414 334q0 123 88 211t211 88t211 -88t88 -211q0 -71 -31 -131q-3 -8 -12 -8h-95q-4 0 -6 1.5t-1.5 4.5t3.5 6q45 55 45 127q0 83 -59.5 142t-142.5 59t-143 -59 t-60 -142q0 -72 45 -127q5 -5 3.5 -8.5t-7.5 -3.5h-94q-10 0 -13 8q-30 59 -30 131zM664 778q0 -20 14.5 -34.5t34.5 -14.5t34.5 14.5t14.5 34.5v117q0 20 -14.5 34.5t-34.5 14.5t-34.5 -14.5t-14.5 -34.5v-117zM980 648q0 -20 13 -34q14 -13 34 -12.5t34 12.5l84 82 q13 14 13 34t-13 34q-15 15 -36 15t-34 -15l-82 -82q-13 -14 -13 -34zM1110 334q0 -20 13.5 -34.5t33.5 -14.5h117q20 0 34.5 14.5t14.5 34.5t-14.5 33.5t-34.5 13.5h-117q-20 0 -33.5 -13.5t-13.5 -33.5z"/>
<glyph unicode=":" horiz-adv-x="1327" d="M102 537q0 62 74 104q-57 45 -57 102q0 76 92 127q-25 36 -25 74q0 69 77 121t193 76t249 24t249 -24t193.5 -76t77.5 -121q0 -107 -176 -170q4 -20 4 -31q0 -60 -63 -104.5t-167 -69.5q6 -18 6 -32q0 -54 -55.5 -92.5t-135 -55t-171.5 -16.5q-93 0 -173 16.5t-136 55 t-56 92.5zM133 305q0 45 45 76q17 11 36.5 7t31.5 -21q9 -13 7.5 -31.5t-13.5 -30.5q55 -24 139 -24q57 0 97.5 10.5t53.5 21.5q3 17 17 29t31 12q21 0 35 -14t14 -35q0 -59 -73 -90t-175 -31q-101 0 -173.5 31t-72.5 90zM199 537q4 -10 33 -24.5t93 -28t142 -13.5 q77 0 140.5 13.5t92 28.5t33.5 26l-14 12q-57 -8 -133 -8q-165 0 -293 41l-6 -2q-30 -8 -51.5 -19t-28 -17t-8.5 -9zM205 102q0 21 13.5 35.5t33.5 14.5q17 0 29.5 -10.5t17.5 -26.5q38 -19 100 -19q69 0 101 19q5 16 17.5 26.5t29.5 10.5q20 0 34.5 -15t14.5 -35 q0 -52 -59 -77t-138 -25q-78 0 -136 25t-58 77zM215 743q0 -10 14.5 -23t46 -27t74 -26t104.5 -20t132 -8t131.5 8t103.5 20t73 26t45.5 27t14.5 23v5q-122 -25 -249 -25q-260 0 -408 80q-27 -11 -47 -23.5t-27.5 -21.5t-7.5 -15zM283 944q0 -13 17.5 -29.5t53.5 -33 t84.5 -30.5t118.5 -23t148 -9t148.5 9t119 23t85 30.5t53.5 33t17 29.5t-17 29.5t-53.5 33t-85 30.5t-119 23t-148.5 9t-148 -9t-118.5 -23t-84.5 -30.5t-53.5 -33t-17.5 -29.5z"/>
<glyph unicode=";" horiz-adv-x="1081" d="M116 326q30 -113 115 -197q128 -129 309.5 -129t309.5 129q85 84 115 196.5t0 225.5t-115 197q-128 129 -309.5 129t-309.5 -129q-85 -84 -115 -196.5t0 -225.5zM199 438.5q0 141.5 100 241.5t241.5 100t241.5 -100t100 -241.5t-100 -241.5t-241.5 -100t-241.5 100 t-100 241.5zM397 571l142 -344q1 -6 6 -6t8 6l59 131q3 6 9 9l131 59q6 3 6 7.5t-6 6.5l-344 142q-6 2 -9 -1.5t-2 -9.5z"/>
<glyph unicode="?" horiz-adv-x="1081" d="M116 326q30 -113 115 -197q128 -129 309.5 -129t309.5 129q85 84 115 196.5t0 225.5t-115 197q-128 129 -309.5 129t-309.5 -129q-85 -84 -115 -196.5t0 -225.5zM199 438.5q0 141.5 100 241.5t241.5 100t241.5 -100t100 -241.5t-100 -241.5t-241.5 -100t-241.5 100 t-100 241.5zM324 443q0 -5 6 -7l344 -141q13 -3 10 10l-141 344q-1 6 -6.5 6t-8.5 -6l-59 -131q-3 -5 -8 -8l-131 -59q-6 -3 -6 -8z"/>
<glyph unicode="A" horiz-adv-x="1738" d="M102 283q0 99 60.5 175.5t156.5 98.5q26 116 118.5 191t213.5 75q87 0 154 -37q93 99 221 99q124 0 211.5 -87.5t87.5 -211.5q0 -109 -65 -189q24 -60 24 -114q0 -117 -83 -200t-200 -83h-618q-117 0 -199 83t-82 200zM199 283q0 -76 54.5 -131.5t129.5 -55.5h618 q76 0 130.5 55t54.5 132q0 75 -54.5 129.5t-130.5 54.5h-92q-9 0 -12 10l-4 33q-9 92 -78.5 154.5t-163.5 62.5q-92 0 -161 -62.5t-80 -154.5l-4 -31q0 -10 -11 -10l-28 -2q-72 -8 -120 -60t-48 -124zM582 982.5q0 20.5 14 35.5q14 14 34.5 14t35.5 -14l34 -37 q15 -13 15 -34t-15 -36q-14 -14 -31 -14.5t-36 14.5l-37 37q-14 14 -14 34.5zM887 731q73 -73 96 -168h18q117 0 199 -82q29 50 29 105q0 85 -59 143.5t-144 58.5q-79 0 -139 -57zM979 1032v117q0 20 13.5 33.5t33.5 13.5q22 0 35.5 -13.5t13.5 -33.5v-117 q0 -22 -13.5 -35.5t-35.5 -13.5q-20 0 -33.5 13.5t-13.5 35.5zM1294 900.5q0 20.5 13 35.5l84 82q13 14 33 14t34 -14t14 -34.5t-14 -35.5l-82 -82q-17 -14 -34.5 -14t-34.5 14q-13 14 -13 34.5zM1340 225.5q0 20.5 14 34.5t34 14t33 -14l37 -37q14 -13 14 -33.5t-14 -35.5 q-14 -14 -34 -14t-33 14l-37 36q-14 15 -14 35.5zM1423 586q0 20 15 34.5t35 14.5h116q20 0 33.5 -14.5t13.5 -34.5t-13.5 -33.5t-33.5 -13.5h-116q-21 0 -35.5 13.5t-14.5 33.5z"/>
<glyph unicode="B" horiz-adv-x="2150" d="M102 49q0 20 14 33.5t34 13.5h749q20 0 34.5 -13.5t14.5 -33.5t-14.5 -34.5t-34.5 -14.5h-749q-20 0 -34 14.5t-14 34.5zM252 221q0 20 13.5 34.5t33.5 14.5h750q20 0 34.5 -14.5t14.5 -34.5t-14.5 -34.5t-34.5 -14.5h-750q-20 0 -33.5 14.5t-13.5 34.5zM352 -131 q0 20 14.5 34.5t34.5 14.5h750q20 0 33.5 -14.5t13.5 -34.5t-13.5 -34.5t-33.5 -14.5h-750q-20 0 -34.5 14.5t-14.5 34.5zM526 360q22 73 77.5 126.5t127.5 70.5q26 116 119.5 191t214.5 75q84 0 154 -37q41 46 98.5 71.5t120.5 25.5q123 0 211 -88t88 -211q0 -105 -66 -187 q25 -55 25 -114q0 -117 -83 -200t-200 -83h-393q-10 0 -10 10v76q0 10 10 10h393q76 0 131 55t55 132q0 75 -55 129.5t-131 54.5h-92q-10 0 -10 10l-4 33q-10 92 -80 154.5t-162 62.5q-94 0 -163.5 -62.5t-78.5 -154.5l-4 -33q0 -10 -10 -10h-31q-50 -6 -90 -36t-61 -75 q-5 -8 -13 -8h-79q-10 0 -10 8q0 2 1 4zM992 980q0 20 14 34q15 14 35.5 14t33.5 -14l37 -37q14 -13 14 -34t-14 -34q-14 -14 -35 -14t-35 14l-36 37q-14 14 -14 34zM1298 731q73 -70 97 -168h18q117 0 199 -82q26 45 26 103q0 83 -58.5 141.5t-141.5 58.5q-84 0 -140 -53z M1389 1028v117q0 20 14.5 34.5t34.5 14.5t33.5 -14.5t13.5 -34.5v-117q0 -20 -13.5 -33.5t-33.5 -13.5t-34.5 13.5t-14.5 33.5zM1704 898q0 20 14 34l82 84q14 14 34.5 14t35.5 -14q14 -15 14 -35.5t-14 -34.5l-84 -82q-11 -14 -33 -14q-24 0 -35 14q-14 14 -14 34z M1750 222q0 20 13 34q13 15 34 15t36 -15l37 -35q14 -15 14 -35t-14 -34q-19 -15 -35 -15t-35 15l-37 36q-13 14 -13 34zM1835 584q0 20 13.5 34.5t33.5 14.5h117q20 0 34.5 -14.5t14.5 -34.5t-14.5 -34.5t-34.5 -14.5h-117q-20 0 -33.5 14.5t-13.5 34.5z"/>
<glyph unicode="C" horiz-adv-x="1798" d="M102 47q0 -20 14.5 -33.5t35.5 -13.5h749q20 0 33.5 13.5t13.5 33.5q0 22 -13.5 35.5t-33.5 13.5h-749q-21 0 -35.5 -14t-14.5 -35zM252 221q0 -20 14.5 -34.5t34.5 -14.5h750q20 0 33.5 14.5t13.5 34.5t-13.5 33.5t-33.5 13.5h-750q-20 0 -34.5 -13.5t-14.5 -33.5z M352 -129q0 -20 14.5 -34.5t34.5 -14.5h750q20 0 34.5 14.5t14.5 34.5t-14.5 33.5t-34.5 13.5h-750q-20 0 -34.5 -13.5t-14.5 -33.5zM526 358v2q22 73 77.5 125.5t129.5 69.5q25 117 118 192.5t214 75.5q118 0 210 -73t120 -187h18q117 0 200 -82.5t83 -199.5t-83 -199 t-200 -82h-393q-10 0 -10 10v76q0 10 10 10h393q76 0 131 55t55 130q0 77 -54.5 131.5t-131.5 54.5h-92q-10 0 -10 10l-4 33q-11 92 -79.5 153.5t-162.5 61.5t-163.5 -62t-78.5 -155l-4 -29q0 -10 -10 -10l-31 -4q-50 -4 -90 -34.5t-59 -76.5q-5 -8 -13 -8h-81q-10 0 -10 8 q0 2 1 4z"/>
<glyph unicode="D" horiz-adv-x="2000" d="M102 49q0 20 15 34.5t35 14.5h458q63 0 107.5 -45t44.5 -108t-44.5 -107.5t-107.5 -44.5t-108 45q-14 14 -14 34t14 34t34 14t35 -14q17 -17 39 -17t39 16.5t17 39.5t-17 39t-39 16h-458q-20 0 -35 14.5t-15 34.5zM102 221q0 20 15 34.5t35 14.5h749q22 0 38.5 16.5 t16.5 39.5t-16.5 39t-38.5 16q-23 0 -39 -16q-15 -13 -35.5 -13t-33.5 13t-13 33.5t13 35.5q43 43 108 43q63 0 107.5 -44t44.5 -107t-44.5 -107.5t-107.5 -44.5h-749q-21 0 -35.5 13.5t-14.5 33.5zM377 360v2q22 72 78 125t129 70q25 116 117.5 191t213.5 75q84 0 152 -35 q89 99 221 99q123 0 211 -88t88 -211q0 -105 -65 -189q24 -52 24 -116q0 -117 -82.5 -200t-199.5 -83h-394q-10 0 -10 10v78q0 10 10 10h394q77 0 131.5 54.5t54.5 130.5t-54.5 130t-131.5 54h-93q-10 0 -10 10l-4 33q-10 94 -79 155.5t-163 61.5t-163 -62.5t-78 -154.5 l-4 -29q0 -10 -11 -10l-30 -4q-51 -4 -91 -34.5t-59 -76.5q-5 -8 -12 -8h-82q-9 0 -9 7q0 2 1 5zM843 984q0 20 15 34q14 15 34 15t34 -15l37 -37q13 -13 13 -34t-13 -34q-14 -14 -35 -14t-35 14l-35 37q-15 14 -15 34zM1147 733q78 -75 98 -168h19q116 0 198 -82 q29 50 29 105q0 83 -60 143t-143 60q-80 0 -141 -58zM1239 1032v117q0 20 14.5 34.5t34.5 14.5t34.5 -14.5t14.5 -34.5v-117q0 -20 -14.5 -33.5t-34.5 -13.5t-34.5 13.5t-14.5 33.5zM1556 902q0 20 13 34l82 84q13 14 33.5 14t35.5 -14q14 -15 14 -35.5t-14 -34.5l-84 -82 q-12 -15 -32.5 -14.5t-34.5 14.5q-13 14 -13 34zM1600 226.5q0 20.5 14 35.5q15 14 35.5 14t33.5 -14l37 -37q14 -15 14 -35t-14 -34q-17 -14 -34.5 -14t-34.5 14l-37 37q-14 13 -14 33.5zM1686 588q0 20 13.5 34.5t33.5 14.5h116q20 0 34.5 -14.5t14.5 -34.5t-14.5 -34.5 t-34.5 -14.5h-116q-20 0 -33.5 14.5t-13.5 34.5z"/>
<glyph unicode="E" horiz-adv-x="1839" d="M225 49q0 -20 14.5 -34.5t34.5 -14.5h459q22 0 38.5 -16t16.5 -39t-16.5 -39.5t-38.5 -16.5t-39 17q-15 14 -35.5 14t-33.5 -14t-13 -34t13 -34q45 -45 108 -45t107.5 44.5t44.5 107.5t-44.5 108t-107.5 45h-459q-20 0 -34.5 -14.5t-14.5 -34.5zM225 221 q0 -20 14.5 -33.5t34.5 -13.5h750q63 0 107.5 44.5t44.5 107.5t-44.5 107t-107.5 44q-66 0 -109 -43q-13 -15 -13 -35.5t13 -33.5t34 -13t36 13q16 16 39 16q22 0 38.5 -16t16.5 -39t-16.5 -39.5t-38.5 -16.5h-750q-20 0 -34.5 -14.5t-14.5 -34.5zM500 360v2q22 72 78 125 t129 70q25 116 117.5 191t213.5 75q119 0 211.5 -72.5t118.5 -185.5h18q117 0 200 -82.5t83 -199.5t-83 -200t-200 -83h-393q-10 0 -10 10v78q0 10 10 10h393q77 0 132 54.5t55 130.5t-55 130t-132 54h-92q-10 0 -10 10l-4 33q-10 94 -79 155.5t-163 61.5t-163 -62.5 t-78 -154.5l-4 -29q0 -10 -11 -10l-30 -4q-51 -4 -91 -34.5t-59 -76.5q-5 -8 -12 -8h-82q-9 0 -9 7q0 2 1 5z"/>
<glyph unicode="F" horiz-adv-x="1740" d="M102 283q0 99 61.5 175.5t155.5 98.5q26 116 119.5 191t214.5 75q84 0 154 -37q89 99 221 99q123 0 211 -87.5t88 -211.5q0 -106 -67 -189q24 -53 24 -114q0 -114 -79 -196.5t-193 -86.5q-11 0 -11 10v76q0 10 11 10q73 4 124.5 58.5t51.5 128.5q0 75 -55.5 129.5 t-131.5 54.5h-92q-10 0 -10 10l-4 33q-10 92 -80 154.5t-162 62.5q-94 0 -163 -62.5t-78 -154.5l-4 -31q0 -10 -11 -10l-30 -2q-71 -8 -119.5 -60.5t-48.5 -123.5q0 -74 51.5 -128.5t124.5 -58.5q10 0 10 -10v-76q0 -10 -10 -10q-114 5 -193.5 87t-79.5 196zM440 233 q0 24 20.5 58.5t41.5 56.5l20 23q9 -9 22.5 -24.5t35.5 -52.5t22 -61q0 -34 -23 -56.5t-57 -22.5t-58 23t-24 56zM582 982.5q0 20.5 14 35.5q14 14 34.5 14t35.5 -14l36 -37q14 -13 14 -34t-14 -36q-17 -14 -34.5 -13.5t-34.5 13.5l-37 37q-14 14 -14 34.5zM610 6 q0 25 13.5 56t33 57.5t39.5 49t34 35.5l13 13q5 -5 14.5 -13.5t32.5 -34.5t40.5 -50.5t32 -56t14.5 -56.5q0 -55 -39 -94t-95 -39q-55 0 -94 38.5t-39 94.5zM694 385q0 16 14 39t28 38l14 15q53 -55 53 -92q0 -22 -15.5 -37.5t-37.5 -15.5q-23 0 -39.5 15.5t-16.5 37.5z M887 731q72 -69 96 -168h18q117 0 199 -82q29 53 29 105q0 84 -58.5 143t-142.5 59t-141 -57zM979 1032v117q0 20 14.5 33.5t34.5 13.5t33.5 -13.5t13.5 -33.5v-117q0 -20 -13.5 -34.5t-33.5 -14.5t-34.5 14.5t-14.5 34.5zM1294 900q0 21 15 36l82 82q13 14 33 14t34 -14 q15 -13 15 -34t-15 -36l-82 -82q-19 -14 -35.5 -14t-31.5 14q-15 13 -15 34zM1340 225.5q0 20.5 14 34.5t34 14t35 -14l35 -37q15 -13 15 -33.5t-15 -33.5q-12 -15 -33.5 -15t-33.5 15l-37 34q-14 15 -14 35.5zM1423 586q0 20 15 34.5t35 14.5h116q20 0 34.5 -14.5 t14.5 -34.5t-14.5 -33.5t-34.5 -13.5h-116q-21 0 -35.5 13.5t-14.5 33.5z"/>
<glyph unicode="G" d="M102 283q0 -114 79.5 -196t193.5 -87q10 0 10 10v76q0 10 -10 10q-73 4 -124.5 58.5t-51.5 128.5q0 73 49 127t119 57l30 2q11 0 11 10l4 31q9 92 78 154.5t163 62.5q93 0 163 -62.5t79 -154.5l4 -33q0 -10 10 -10h92q76 0 131.5 -54.5t55.5 -129.5q0 -74 -51.5 -128.5 t-124.5 -58.5q-11 0 -11 -10v-76q0 -10 11 -10q114 4 193 86.5t79 196.5q0 117 -83 198.5t-200 81.5h-18q-28 114 -120 187t-210 73q-121 0 -214.5 -75t-119.5 -191q-94 -22 -155.5 -98.5t-61.5 -175.5zM440 233q0 -33 24 -56t58 -23t57 22.5t23 56.5q0 24 -20 58.5 t-40 56.5l-20 23q-9 -9 -22.5 -24.5t-36.5 -52.5t-23 -61zM610 6q0 -56 39 -94.5t94 -38.5q56 0 95 39t39 94q0 25 -14 56t-33.5 57.5t-39 49t-33.5 35.5l-14 13q-5 -5 -14 -13.5t-32 -34.5t-40.5 -50.5t-32 -56t-14.5 -56.5zM694 385q0 -22 16.5 -37.5t39.5 -15.5 q22 0 37.5 15.5t15.5 37.5q0 16 -13.5 39t-26.5 38l-13 15q-56 -55 -56 -92z"/>
<glyph unicode="H" horiz-adv-x="1740" d="M102 281q0 100 61 176t156 100q26 116 119.5 191t214.5 75q84 0 154 -37q89 99 221 99q123 0 211 -88t88 -211q0 -106 -67 -189q24 -53 24 -116q0 -113 -79 -195t-193 -86q-11 0 -11 10v76q0 10 11 10q73 4 124.5 58.5t51.5 126.5q0 76 -55 131t-132 55h-92q-10 0 -10 10 l-4 33q-9 92 -79 154.5t-163 62.5q-94 0 -163 -62.5t-78 -156.5l-4 -29q0 -10 -11 -10l-30 -4q-71 -8 -119.5 -60.5t-48.5 -123.5q0 -72 51.5 -126.5t124.5 -58.5q10 0 10 -10v-76q0 -10 -10 -10q-114 4 -193.5 86t-79.5 195zM465 49q0 19 13.5 33t33.5 14t33.5 -14 t13.5 -33q0 -20 -13.5 -34.5t-33.5 -14.5t-33.5 14.5t-13.5 34.5zM465 -158q0 20 13.5 33.5t33.5 13.5t33.5 -13.5t13.5 -33.5t-13.5 -33.5t-33.5 -13.5t-33.5 13.5t-13.5 33.5zM582 982q0 20 14 34q15 15 35.5 15t34.5 -15l36 -35q14 -15 14 -36t-14 -34q-21 -17 -38.5 -15 t-30.5 15l-37 37q-14 14 -14 34zM647 -61q0 20 14 34.5t33 14.5q20 0 34.5 -14.5t14.5 -34.5t-14.5 -34t-34.5 -14q-19 0 -33 14t-14 34zM647 145q0 20 14 34t33 14q20 0 34.5 -14t14.5 -34t-14.5 -33.5t-34.5 -13.5q-19 0 -33 13.5t-14 33.5zM647 -270q0 20 14 34.5 t33 14.5q20 0 34.5 -14.5t14.5 -34.5t-14.5 -33.5t-34.5 -13.5q-19 0 -33 13.5t-14 33.5zM831 49q0 19 14 33t34 14t33.5 -14t13.5 -33q0 -20 -13.5 -34.5t-33.5 -14.5t-34 14.5t-14 34.5zM831 -158q0 20 14 33.5t34 13.5t33.5 -13.5t13.5 -33.5t-13.5 -33.5t-33.5 -13.5 t-34 13.5t-14 33.5zM887 731q72 -69 96 -168h18q117 0 199 -82q29 50 29 105q0 83 -59 142.5t-142 59.5q-81 0 -141 -57zM979 1030v117q0 20 14.5 34.5t34.5 14.5t33.5 -14.5t13.5 -34.5v-117q0 -20 -13.5 -33.5t-33.5 -13.5t-34.5 13.5t-14.5 33.5zM1294 899.5 q0 20.5 15 34.5l82 84q13 14 33 14t34 -14q15 -15 15 -35t-15 -35l-82 -82q-15 -17 -35.5 -14.5t-31.5 14.5q-15 13 -15 33.5zM1340 224.5q0 20.5 14 35.5q14 14 34 14t35 -14l35 -37q15 -13 15 -33.5t-15 -35.5q-14 -14 -31 -14t-36 14l-37 36q-14 14 -14 34.5zM1423 586 q0 20 15 34.5t35 14.5h116q20 0 34.5 -14.5t14.5 -34.5t-14.5 -34.5t-34.5 -14.5h-116q-20 0 -35 14.5t-15 34.5z"/>
<glyph unicode="I" d="M102 281q0 -113 79.5 -195t193.5 -86q10 0 10 10v76q0 10 -10 10q-73 4 -124.5 58.5t-51.5 126.5t48.5 125t119.5 59l30 4q11 0 11 10l4 29q9 94 78 156.5t163 62.5q92 0 162 -62.5t80 -154.5l4 -33q0 -10 10 -10h92q77 0 132 -55t55 -131q0 -72 -51.5 -126.5 t-124.5 -58.5q-11 0 -11 -10v-76q0 -10 11 -10q114 4 193 86t79 195q0 117 -83 199.5t-200 82.5h-18q-28 114 -120 187t-210 73q-121 0 -214.5 -75t-119.5 -191q-95 -24 -156 -100t-61 -176zM465 49q0 -20 13.5 -34.5t33.5 -14.5t33.5 14.5t13.5 34.5q0 19 -13.5 33 t-33.5 14t-33.5 -14t-13.5 -33zM465 -158q0 -20 13.5 -33.5t33.5 -13.5t33.5 13.5t13.5 33.5t-13.5 33.5t-33.5 13.5t-33.5 -13.5t-13.5 -33.5zM647 -61q0 -20 14 -34t33 -14q20 0 34.5 14t14.5 34t-14.5 34.5t-34.5 14.5q-19 0 -33 -14.5t-14 -34.5zM647 145 q0 -20 14 -33.5t33 -13.5q20 0 34.5 13.5t14.5 33.5t-14.5 34t-34.5 14q-19 0 -33 -14t-14 -34zM647 -270q0 -20 14 -33.5t33 -13.5q20 0 34.5 13.5t14.5 33.5t-14.5 34.5t-34.5 14.5q-19 0 -33 -14.5t-14 -34.5zM831 49q0 -20 14 -34.5t34 -14.5t33.5 14.5t13.5 34.5 q0 19 -13.5 33t-33.5 14t-34 -14t-14 -33zM831 -158q0 -20 14 -33.5t34 -13.5t33.5 13.5t13.5 33.5t-13.5 33.5t-33.5 13.5t-34 -13.5t-14 -33.5z"/>
<glyph unicode="J" horiz-adv-x="1740" d="M102 283q0 99 61.5 175.5t155.5 98.5q26 116 119.5 191t214.5 75q84 0 154 -37q89 99 221 99q123 0 211 -87.5t88 -211.5q0 -106 -67 -189q24 -53 24 -114q0 -114 -79 -196.5t-193 -86.5q-11 0 -11 10v76q0 10 11 10q73 4 124.5 58.5t51.5 128.5q0 75 -55.5 129.5 t-131.5 54.5h-92q-10 0 -10 10l-4 33q-10 92 -80 154.5t-162 62.5q-94 0 -163 -62.5t-78 -154.5l-4 -31q0 -10 -11 -10l-30 -2q-71 -8 -119.5 -60.5t-48.5 -123.5q0 -74 51.5 -128.5t124.5 -58.5q10 0 10 -10v-76q0 -10 -10 -10q-114 5 -193.5 87t-79.5 196zM389 -172 l113 414q6 19 23 28.5t36 3.5q20 -4 30 -21t5 -38l-113 -412q-9 -36 -43 -36q-8 0 -16 2q-20 6 -30 23q-7 11 -7 24q0 6 2 12zM537 -344l159 586q5 19 22.5 28.5t37.5 3.5q19 -5 28.5 -22t3.5 -37l-159 -586q-3 -19 -19 -30q-10 -7 -22 -7q-7 0 -15 2q-23 4 -33 22 q-5 12 -5 24q0 8 2 16zM582 982.5q0 20.5 14 35.5q15 14 35.5 14t34.5 -14l36 -37q14 -15 14 -36t-14 -34q-17 -13 -34.5 -13t-34.5 13l-37 37q-14 14 -14 34.5zM774 -172l113 414q5 19 22 28.5t37 3.5q19 -5 29 -22t4 -37l-113 -412q-4 -22 -22 -31q-11 -5 -23 -5 q-7 0 -14 2q-19 6 -29 23q-6 11 -6 23q0 6 2 13zM887 731q72 -69 96 -168h18q117 0 199 -82q29 50 29 105q0 84 -58.5 143t-142.5 59q-81 0 -141 -57zM979 1030v117q0 21 14 35t35 14q20 0 33.5 -13.5t13.5 -35.5v-117q0 -20 -13.5 -33.5t-33.5 -13.5t-34.5 13.5t-14.5 33.5 zM1294 900q0 21 15 36l82 82q13 14 33 14t34 -14q15 -13 15 -34t-15 -36l-82 -82q-15 -17 -35.5 -14.5t-31.5 14.5q-15 13 -15 34zM1340 225q0 20 14 35q14 14 34 14t35 -14l35 -37q15 -13 15 -33.5t-15 -35.5q-13 -13 -32 -13l-1 1q-19 0 -34 12l-37 36q-14 15 -14 35z M1423 586q0 20 15 34.5t35 14.5h116q20 0 34.5 -14.5t14.5 -34.5t-14.5 -34.5t-34.5 -14.5h-116q-20 0 -35 14.5t-15 34.5z"/>
<glyph unicode="K" d="M102 283q0 -114 79.5 -196t193.5 -87q10 0 10 10v76q0 10 -10 10q-73 4 -124.5 58.5t-51.5 128.5q0 71 48.5 123.5t119.5 60.5l30 2q11 0 11 10l4 31q9 92 78 154.5t163 62.5q92 0 162 -62.5t80 -154.5l4 -33q0 -10 10 -10h92q76 0 131.5 -54.5t55.5 -129.5 q0 -74 -51.5 -128.5t-124.5 -58.5q-11 0 -11 -10v-76q0 -10 11 -10q114 4 193 86.5t79 196.5q0 117 -83 198.5t-200 81.5h-18q-28 114 -120 187t-210 73q-121 0 -214.5 -75t-119.5 -191q-94 -22 -155.5 -98.5t-61.5 -175.5zM389 -172q-2 -6 -2 -12q0 -12 7 -24 q10 -17 30 -23q2 0 6 -1t6 -1q38 0 47 36l113 412q5 21 -5 38t-30 21q-7 2 -14 2q-11 0 -22 -6q-17 -10 -23 -28zM537 -344q-2 -8 -2 -15q-1 -12 5 -22q10 -17 29 -22q6 -3 15 -3q15 0 28.5 10t16.5 25l159 586q6 20 -3.5 37t-28.5 22q-8 2 -15 2q-13 0 -23 -6 q-18 -10 -22 -28zM774 -172q-2 -7 -2 -13q0 -11 6 -23q10 -18 29 -23l14 -2q16 0 29 9.5t16 26.5l113 412q2 8 2 15q0 12 -6 22q-10 17 -29 22q-8 2 -15 2q-12 0 -22 -6q-17 -10 -22 -28z"/>
<glyph unicode="L" horiz-adv-x="1738" d="M102 283q0 99 62 175.5t158 98.5q25 116 117.5 191t213.5 75q86 0 156 -37q89 95 217 95q124 0 211.5 -87.5t87.5 -211.5q0 -107 -65 -187q24 -53 24 -112q0 -114 -78 -196.5t-192 -86.5q-10 0 -10 10v76q0 10 10 10q72 5 123 59.5t51 127.5q0 75 -54.5 129.5 t-129.5 54.5h-95q-10 0 -10 10l-4 33q-9 92 -78.5 154.5t-163.5 62.5t-163 -62.5t-78 -154.5l-4 -31q0 -10 -11 -10l-28 -2q-72 -8 -120 -60t-48 -124q0 -74 50.5 -128.5t123.5 -58.5q10 0 10 -10v-76q0 -10 -10 -10q-114 5 -193.5 87t-79.5 196zM412 -88l16 57q4 20 21 30 t38 5q19 -6 29 -23.5t4 -35.5l-14 -60q-7 -23 -25.5 -31.5t-34.5 -3.5q-18 6 -28 24q-7 13 -7 27q0 5 1 11zM487 184l17 58q4 20 21 29.5t38 4.5q19 -6 29 -23.5t4 -35.5l-14 -59q-6 -21 -24 -30t-36 -3q-37 13 -37 45q0 7 2 14zM557 -268l16 59q5 19 22.5 29t37.5 4 q19 -5 29 -22.5t4 -37.5l-15 -57q-7 -25 -24 -33q-10 -4 -21 -4q-7 0 -14 2q-20 6 -30 24q-7 12 -7 24q0 6 2 12zM581 978.5q0 20.5 15 35.5q14 14 34 14t34 -14l36 -37q14 -15 14 -35t-14 -35q-19 -14 -35.5 -14.5t-31.5 14.5l-37 37q-15 14 -15 34.5zM633 4l16 59 q4 20 21.5 30t38.5 5q19 -6 28.5 -23.5t3.5 -37.5l-14 -57q-7 -25 -24 -32.5t-35 -2.5q-19 6 -29 23q-7 12 -7 25q0 6 1 11zM793 -92l16 59q6 19 23.5 29t35.5 4q20 -4 30 -21t5 -38l-16 -58q-6 -21 -24 -31q-11 -6 -22 -6l-14 2q-19 8 -29 24q-6 11 -7 23q0 6 2 13z M872 180l17 60q5 19 22 28.5t37 3.5q19 -5 29 -22t4 -37l-16 -57q-3 -17 -16 -27t-29 -10l-15 2q-19 5 -29 23q-6 11 -6 23q0 6 2 13zM889 729q73 -69 96 -166h19q116 0 198 -82q27 52 27 101q0 84 -59.5 143t-143.5 59q-79 0 -137 -55zM977 1028v115q0 21 14 35t35 14 t35 -14t14 -35v-115q0 -21 -14 -35t-35 -14t-35 14t-14 35zM1294 896.5q0 20.5 13 35.5l82 82q15 14 35 14t34 -14t14 -34.5t-14 -35.5l-82 -82q-17 -14 -34.5 -14t-34.5 14q-13 14 -13 34.5zM1339 221.5q0 20.5 15 34.5q14 14 34 14t33 -14l37 -37q14 -14 15 -34t-15 -35 q-16 -18 -33.5 -18t-35.5 18l-35 36q-15 15 -15 35.5zM1423 582q0 20 13.5 34.5t33.5 14.5h117q21 0 35 -14t14 -35q0 -20 -13.5 -33.5t-35.5 -13.5h-117q-20 0 -33.5 13.5t-13.5 33.5z"/>
<glyph unicode="M" d="M102 281q0 -114 79.5 -195t193.5 -86q10 0 10 10v76q0 10 -10 10q-73 4 -123.5 57.5t-50.5 127.5q0 72 48 125t120 59l30 4q9 0 9 8l4 31q9 93 78 155t163 62t163.5 -61.5t78.5 -153.5l4 -33q3 -10 12 -10h93q75 0 129.5 -55t54.5 -131q0 -73 -51 -126.5t-123 -58.5 q-10 0 -10 -10v-76q0 -10 10 -10q114 4 192 85.5t78 195.5q0 117 -81.5 199.5t-198.5 82.5h-19q-28 115 -120.5 187.5t-211.5 72.5q-121 0 -213.5 -75.5t-117.5 -192.5q-96 -22 -158 -98.5t-62 -175.5zM412 -90q-2 -7 -2 -13q0 -11 6 -23q10 -18 30 -24q9 -2 17 -2 q33 0 43 37l14 58q6 20 -4 37t-29 22q-20 6 -37 -4t-22 -29zM487 182q-2 -6 -2 -12q0 -12 7 -24q10 -17 30 -23q20 -8 37 2t23 33l14 57q6 20 -4 37t-29 22q-8 2 -15 2q-12 0 -22 -6q-17 -10 -22 -28zM557 -268q-2 -7 -2 -14q0 -12 7 -24q10 -18 30 -22q7 -2 14 -2 q12 0 22 5q18 9 23 30l15 59q6 20 -4 37.5t-29 22.5q-20 6 -37.5 -4.5t-22.5 -30.5zM633 4q-2 -7 -2 -14q0 -13 7 -24q10 -17 30 -21q10 -3 18 -3q30 0 41 38l14 57q6 20 -3.5 37t-28.5 22q-20 6 -37.5 -4t-22.5 -29zM793 -92q-2 -7 -2 -14q1 -12 7 -24q10 -18 29 -22 q8 -2 15 -2q12 0 22 5q18 9 23 30l16 60q5 19 -5 36t-30 23q-19 5 -36 -5t-23 -30zM872 180q-2 -8 -2 -15q0 -12 6 -22q10 -17 29 -22q10 -3 19 -3q32 0 43 36l14 59q2 8 3 15q0 12 -7 22q-10 17 -29 22q-7 2 -14 1q-13 1 -24 -5q-17 -10 -21 -30z"/>
<glyph unicode="N" horiz-adv-x="1740" d="M102 281q0 99 62 175.5t158 98.5q25 116 117.5 191t213.5 75q87 0 154 -37q93 99 221 99q123 0 211 -88t88 -211q0 -106 -67 -189q24 -53 24 -114q0 -108 -73 -189t-179 -92l-254 -313q-13 -17 -33.5 -20t-33.5 11q-15 12 -18 32.5t9 35.5l269 334q10 12 51 16 q69 6 117.5 59.5t48.5 125.5q0 76 -54.5 130t-129.5 54h-93q-9 0 -12 10l-4 33q-9 92 -78.5 154.5t-163.5 62.5t-163 -62.5t-78 -154.5l-4 -31q0 -10 -11 -10l-28 -2q-72 -8 -120 -60t-48 -124q0 -77 54 -132t130 -55l-66 -80q-7 -6 -14 -4q-89 25 -146 100t-57 171z M238 -286q-3 8 -2 15q0 10 4 21q7 19 25.5 26t37.5 -1q17 -8 25 -26.5t0 -35.5q-7 -19 -26 -26.5t-38 0.5q-20 9 -26 27zM314 -498q-3 9 -3 17q0 10 4 20q7 18 26 25.5t38 -0.5q18 -7 25 -26t-1 -38q-7 -18 -25 -25q-9 -3 -18 -3q-10 0 -20 4q-19 8 -26 26zM341 -136v6 q0 17 11 30l266 333q14 15 34.5 17.5t35.5 -10.5q15 -12 16.5 -32.5t-10.5 -35.5l-268 -334q-12 -15 -32.5 -16.5t-35.5 10.5t-17 32zM406 -352v6q0 16 10 29l381 473q12 15 32 17.5t35 -9.5q15 -14 17.5 -33.5t-9.5 -36.5l-380 -471q-13 -17 -34 -19.5t-34 11.5 q-16 13 -18 33zM583 979.5q0 20.5 15 34.5q14 14 34 14t34 -14l36 -37q14 -13 14 -34t-14 -34q-21 -17 -38.5 -15t-30.5 15l-35 37q-15 13 -15 33.5zM610 -429q-4 9 -4 18q0 10 4 20q7 18 26 25t38 -1q18 -7 25 -25.5t-1 -37.5t-26 -26q-9 -3 -17 -3q-10 0 -20 4 q-17 7 -25 26zM887 729q75 -71 98 -168h19q116 0 198 -82q29 50 29 105q0 83 -59.5 141.5t-143.5 58.5q-80 0 -141 -55zM979 1028v117q0 20 14.5 34.5t34.5 14.5t34.5 -14.5t14.5 -34.5v-117q0 -20 -14.5 -33.5t-34.5 -13.5t-34.5 13.5t-14.5 33.5zM1296 898q0 20 13 34 l82 84q13 14 33.5 14t35.5 -14q14 -15 14 -35.5t-14 -34.5l-84 -82q-12 -15 -32.5 -14.5t-34.5 14.5q-13 14 -13 34zM1340 222q0 20 14 34q15 15 35.5 15t33.5 -15l37 -35q14 -15 14 -35t-14 -34q-19 -15 -35 -15h-3q-18 2 -31 15l-37 36q-14 14 -14 34zM1425 584 q0 20 14 33.5t34 13.5h116q20 0 34.5 -13.5t14.5 -33.5t-14.5 -34.5t-34.5 -14.5h-116q-20 0 -34 14.5t-14 34.5z"/>
<glyph unicode="O" horiz-adv-x="1384" d="M102 281q0 99 60.5 175.5t156.5 98.5q25 117 118 191.5t214 74.5q119 0 211.5 -72.5t120.5 -185.5h18q117 0 199 -82.5t82 -199.5q0 -108 -73 -189t-179 -92l-254 -313q-12 -20 -35 -20t-32 11q-15 12 -18 32.5t9 35.5l269 334q4 6 11 9t11.5 4t15.5 2t13 1q70 8 118 61 t48 124q0 76 -54 130t-131 54h-92q-9 0 -12 10l-4 33q-9 93 -78.5 155t-163.5 62t-162 -61.5t-79 -155.5l-4 -31q0 -8 -9 -8l-30 -4q-72 -6 -120 -59t-48 -125q0 -77 54 -131t130 -54l-66 -82q-7 -6 -14 -4q-89 27 -145 101t-56 170zM237 -286q-3 9 -3 17q0 9 4 19 q8 19 26 26.5t37 -1.5q19 -7 26 -25t-1 -37q-7 -18 -26 -25t-38 1q-18 7 -25 25zM313 -461q7 18 26 25.5t38 -0.5q18 -7 25 -26t-1 -38q-8 -17 -26 -24q-9 -4 -18 -4t-19 4q-18 9 -25 27q-4 9 -4 18t4 18zM339 -136v6q0 17 11 30l268 333q12 15 32 18q4 1 8 1q16 0 28 -10 q15 -14 17 -33t-11 -37l-266 -332q-15 -19 -35 -19q-16 0 -35 11q-15 12 -17 32zM404 -352v6q0 16 10 31l381 471q12 16 32 18h7q16 0 28 -10q16 -12 18 -32v-7q0 -16 -10 -29l-381 -473q-17 -19 -36 -19q-15 0 -31 11q-16 13 -18 33zM607 -428q-3 8 -3 17q0 10 4 20 q7 18 26 25q9 3 18 4l20 -5q18 -7 25 -25q3 -9 4 -18q0 -10 -5 -20q-8 -16 -26 -24q-9 -4 -19 -4q-9 0 -18 3q-19 9 -26 27z"/>
<glyph unicode="P" horiz-adv-x="1740" d="M102 283q0 99 61.5 175.5t155.5 98.5q26 116 119.5 191t214.5 75q84 0 154 -37q89 99 221 99q123 0 211 -88t88 -211q0 -106 -67 -189q24 -53 24 -114q0 -114 -79 -196.5t-193 -86.5q-11 0 -11 10v78q0 10 11 10q74 5 125 58.5t51 126.5q0 76 -55 130t-132 54h-92 q-10 0 -10 10l-4 33q-10 92 -80 154.5t-162 62.5q-94 0 -163 -62.5t-78 -154.5l-4 -29q0 -10 -11 -10l-30 -4q-71 -8 -119.5 -60.5t-48.5 -123.5q0 -64 40 -115t101 -66l61 164q5 8 13 8h168q14 0 8 -12l-141 -264h124q6 0 8 -4t-1 -8l-304 -449h-16l137 367h-121 q-11 0 -8 12l37 96q-89 27 -146 101.5t-57 169.5zM537 -344l159 586q5 19 22.5 28.5t37.5 3.5q19 -5 28.5 -22t3.5 -37l-159 -584q-6 -21 -25 -30q-12 -6 -23 -6q-6 0 -12 2q-19 7 -29 23q-6 10 -5 21q0 7 2 15zM582 982q0 20 14 34t34.5 14t35.5 -14l36 -37q14 -13 14 -34 t-16 -34q-12 -15 -32.5 -14.5t-34.5 14.5l-37 37q-14 14 -14 34zM774 -172l113 414q5 19 22 28.5t37 3.5q19 -5 29 -22t4 -37l-113 -412q-6 -25 -24 -33q-9 -4 -18 -4q-8 0 -17 3q-19 9 -29 25q-6 10 -6 21q0 6 2 13zM887 731q71 -68 96 -166h18q115 0 199 -84q29 50 29 105 q0 83 -59 141.5t-142 58.5t-141 -55zM979 1030v117q0 20 14.5 34.5t34.5 14.5t33.5 -14.5t13.5 -34.5v-117q0 -20 -13.5 -34.5t-33.5 -14.5t-34.5 14.5t-14.5 34.5zM1294 899.5q0 20.5 15 34.5l82 82q13 15 33 15t34 -15q15 -14 15 -34t-15 -34l-82 -82q-14 -14 -34.5 -14.5 t-32.5 14.5q-15 13 -15 33.5zM1340 224q0 20 14 34q14 15 34 15t33 -15l37 -35q15 -15 15 -35.5t-15 -33.5q-13 -15 -30 -15q-4 1 -6 1q-20 2 -31 14l-37 36q-14 14 -14 34zM1423 586q0 20 14.5 33.5t35.5 13.5h116q20 0 34.5 -13.5t14.5 -33.5t-14.5 -34.5t-34.5 -14.5 h-116q-20 0 -35 14.5t-15 34.5z"/>
<glyph unicode="Q" d="M102 283q0 99 61.5 175.5t155.5 98.5q26 116 119.5 191t214.5 75q118 0 210 -72.5t120 -185.5h18q117 0 200 -82.5t83 -199.5q0 -114 -79 -196.5t-193 -86.5q-11 0 -11 10v78q0 10 11 10q74 5 125 58.5t51 126.5q0 76 -55 130t-132 54h-92q-10 0 -10 10l-4 33 q-10 92 -80 154.5t-162 62.5q-94 0 -163 -62.5t-78 -154.5l-4 -29q0 -10 -11 -10l-30 -4q-71 -8 -119.5 -60.5t-48.5 -123.5q0 -64 40 -115t101 -66l61 164q5 8 13 8h168q14 0 8 -12l-141 -264h124q6 0 8 -4t-1 -8l-304 -449h-16l137 367h-121q-11 0 -8 12l37 96 q-89 27 -146 101.5t-57 169.5zM537 -344l159 586q5 19 22 28q11 6 23 6q7 0 15 -2q19 -5 28.5 -22t3.5 -37l-159 -584q-6 -22 -23 -31q-12 -5 -23 -5q-7 0 -14 2q-20 6 -29 23q-5 9 -5 21q0 7 2 15zM774 -172l113 414q5 19 22 28q10 6 22 6q7 0 15 -2q19 -5 29 -22 q6 -11 6 -22q0 -8 -2 -15l-113 -412q-7 -26 -24 -33q-10 -4 -18 -4q-9 0 -17 3q-19 8 -29 25q-6 10 -6 21q0 6 2 13z"/>
<glyph unicode="R" horiz-adv-x="1738" d="M102 283q0 99 61.5 175.5t155.5 98.5q26 116 119.5 191t214.5 75q84 0 154 -37q42 45 99.5 71t119.5 26q123 0 211 -88t88 -211q0 -106 -65 -187q24 -53 24 -114q0 -114 -79 -196.5t-193 -86.5q-11 0 -11 10v76q0 10 11 10q73 4 123.5 58.5t50.5 128.5q0 75 -54.5 129.5 t-130.5 54.5h-92q-10 0 -10 10l-4 33q-10 92 -80 154.5t-162 62.5q-94 0 -163 -62.5t-78 -154.5l-4 -33q-3 -8 -13 -8l-28 -2q-72 -8 -120 -60t-48 -124q0 -65 40 -115.5t101 -65.5l61 164q5 8 13 8h168q14 0 8 -12l-141 -264h124q6 0 8 -4t-1 -8l-304 -449h-16l137 367 h-121q-11 0 -8 12l37 96q-89 25 -146 100t-57 171zM569 -266l15 59q6 19 23.5 29t35.5 4q20 -4 30 -21t5 -38l-16 -58q-6 -25 -24 -33q-10 -4 -22 -4q-7 0 -14 2q-19 6 -29 24q-6 11 -6 22q0 7 2 14zM580 980q0 20 14 34q15 14 35.5 14t34.5 -14l36 -37q14 -13 14 -34 t-14 -34q-21 -17 -38.5 -15t-30.5 15l-37 37q-14 14 -14 34zM645 6l14 60q6 20 23.5 29.5t36.5 4.5q20 -6 30 -23t5 -36l-17 -59q-7 -24 -24.5 -32t-34.5 -3q-20 6 -30 23q-6 10 -5 22q0 7 2 14zM805 -90l16 59q5 19 22.5 29t37.5 4q19 -5 28.5 -22t3.5 -37l-14 -58 q-7 -26 -25 -34q-9 -4 -18 -4q-8 0 -16 3q-21 8 -31 25q-6 11 -6 22q0 6 2 13zM883 182l16 60q6 19 23 28.5t36 3.5q20 -4 30 -21t5 -38l-16 -57q-7 -24 -24 -32q-10 -4 -21 -5q-7 0 -14 2q-20 6 -30 23q-7 11 -7 24q0 6 2 12zM887 729q72 -66 96 -166h18q117 0 199 -82 q27 46 27 103q0 83 -59 141.5t-142 58.5q-81 0 -139 -55zM977 1028v117q0 20 14.5 34.5t34.5 14.5t33.5 -14.5t13.5 -34.5v-117q0 -20 -13.5 -34.5t-33.5 -14.5t-34.5 14.5t-14.5 34.5zM1294 898q0 20 13 34l82 82q13 15 33 15t34 -15q15 -13 15 -34t-15 -34l-82 -82 q-15 -17 -35.5 -14.5t-31.5 14.5q-13 14 -13 34zM1338 222q0 20 14 34q14 15 34 15t35 -15l35 -35q15 -15 15 -35t-15 -34q-12 -15 -31 -15l-1 1q-20 0 -35 14l-37 36q-14 14 -14 34zM1421 584q0 20 14.5 33.5t34.5 13.5h117q20 0 34.5 -13.5t14.5 -33.5t-14.5 -34.5 t-34.5 -14.5h-117q-20 0 -34.5 14.5t-14.5 34.5z"/>
<glyph unicode="S" d="M102 283q0 99 61.5 175.5t155.5 98.5q26 116 119.5 191t214.5 75q118 0 210 -72.5t120 -185.5h18q117 0 200 -82.5t83 -199.5q0 -114 -79 -196.5t-193 -86.5q-11 0 -11 10v78q0 10 11 10q74 5 125 58.5t51 126.5q0 76 -55 130t-132 54h-92q-10 0 -10 10l-4 33 q-10 92 -80 154.5t-162 62.5q-94 0 -163 -62.5t-78 -154.5l-4 -29q0 -10 -11 -10l-30 -4q-71 -8 -119.5 -60.5t-48.5 -123.5q0 -64 40 -115t101 -66l61 164q5 8 13 8h168q14 0 8 -12l-141 -264h124q6 0 8 -4t-1 -8l-304 -449h-16l137 367h-121q-11 0 -8 12l37 96 q-89 27 -146 101.5t-57 169.5zM569 -264l15 57q6 20 23 30t36 5q20 -6 30 -23t5 -36l-16 -60q-6 -21 -24 -30q-10 -5 -21 -5q-7 0 -15 2q-19 6 -29 23q-6 11 -6 22q0 7 2 15zM645 8l14 58q6 20 23.5 29.5t36.5 4.5q20 -6 30 -23t5 -36l-17 -59q-6 -21 -23 -30t-36 -3 q-19 7 -29 23q-6 10 -6 21q0 7 2 15zM805 -90l16 59q4 20 21.5 30t38.5 5q19 -6 28.5 -23.5t3.5 -37.5l-14 -58q-7 -25 -24 -33q-10 -4 -21 -4q-7 0 -14 2q-19 6 -29 24q-7 12 -7 25q0 6 1 11zM883 184l16 58q6 20 23 30q11 6 23 6q6 0 13 -2q20 -6 30 -23q7 -11 7 -24 q0 -6 -2 -12l-16 -59q-7 -24 -25 -33q-10 -5 -19 -5q-8 0 -15 3q-20 9 -30 25q-7 12 -6 24q0 6 1 12z"/>
<glyph unicode="T" horiz-adv-x="1740" d="M102 283q0 99 61.5 175.5t155.5 98.5q26 116 119.5 191t214.5 75q84 0 154 -37q89 99 221 99q123 0 211 -88t88 -211q0 -106 -67 -189q24 -53 24 -114q0 -114 -79 -196.5t-193 -86.5q-11 0 -11 10v76q0 10 11 10q73 4 124.5 58.5t51.5 128.5q0 75 -55.5 129.5 t-131.5 54.5h-92q-10 0 -10 10l-4 33q-10 92 -80 154.5t-162 62.5q-94 0 -163 -62.5t-78 -154.5l-4 -31q0 -10 -11 -10l-30 -2q-71 -8 -119.5 -60.5t-48.5 -123.5q0 -74 51.5 -128.5t124.5 -58.5q10 0 10 -10v-76q0 -10 -10 -10q-114 5 -193.5 87t-79.5 196zM392 -201 q-3 8 -4 16q0 10 5 19q8 19 26.5 26.5t35.5 -1.5q18 -7 25 -25t-1 -37q-7 -18 -25.5 -25t-35.5 1q-18 8 -26 26zM430 -25l72 267q6 19 23 28.5t36 3.5q20 -4 30 -21t5 -38l-72 -266q-10 -37 -40 -37q-9 0 -21 4q-19 6 -29 22q-6 10 -6 22q0 7 2 15zM537 -375q-3 8 -3 16 q0 10 5 21q8 17 26 24.5t35 0.5q18 -7 26 -26t-1 -38q-7 -18 -26 -25q-9 -3 -17 -3q-10 0 -19 4q-19 8 -26 26zM578 -193l118 435q5 19 22.5 28.5t37.5 3.5q19 -5 28.5 -22t3.5 -37l-116 -432q-6 -25 -24 -33q-10 -4 -22 -4q-7 0 -14 2q-20 6 -30 23q-6 11 -6 23q0 6 2 13z M582 982q0 20 14 34t34.5 14t35.5 -14l36 -37q14 -13 14 -34t-14 -34q-21 -17 -38.5 -15t-30.5 15l-37 37q-14 14 -14 34zM776 -202q-4 9 -4 18t4 18q8 19 26.5 26.5t37.5 -1.5q17 -8 24 -25.5t0 -36.5q-8 -18 -26 -25q-9 -3 -17 -3q-10 0 -20 4q-17 7 -25 25zM815 -23 l72 265q5 19 22 28.5t37 3.5q19 -5 29 -22t4 -37l-72 -264q-5 -21 -23 -30q-10 -5 -22 -5q-7 0 -14 2q-19 6 -29 22q-6 10 -6 22q0 7 2 15zM887 731q72 -69 96 -168h18q117 0 199 -82q29 50 29 105q0 83 -59 141.5t-142 58.5t-141 -55zM979 1030v117q0 20 14.5 34.5 t34.5 14.5t33.5 -14.5t13.5 -34.5v-117q0 -20 -13.5 -34.5t-33.5 -14.5t-34.5 14.5t-14.5 34.5zM1294 899.5q0 20.5 15 34.5l82 82q13 15 33 15t34 -15q15 -14 15 -34t-15 -34l-82 -82q-14 -14 -34.5 -14.5t-32.5 14.5q-15 13 -15 33.5zM1340 224q0 20 14 34q14 15 34 15 t33 -15l37 -35q15 -15 15 -35.5t-15 -33.5q-12 -15 -33.5 -15t-33.5 15l-37 36q-14 14 -14 34zM1423 586q0 20 14.5 33.5t35.5 13.5h116q20 0 34.5 -13.5t14.5 -33.5t-14.5 -34.5t-34.5 -14.5h-116q-20 0 -35 14.5t-15 34.5z"/>
<glyph unicode="U" d="M102 283q0 99 61.5 175.5t155.5 98.5q26 116 119.5 191t214.5 75q118 0 210 -73t120 -187h18q117 0 200 -81.5t83 -198.5q0 -114 -79 -196.5t-193 -86.5q-11 0 -11 10v76q0 10 11 10q73 4 124.5 58.5t51.5 128.5q0 75 -55.5 129.5t-131.5 54.5h-92q-10 0 -10 10l-4 33 q-10 92 -80 154.5t-162 62.5q-94 0 -163 -62.5t-78 -154.5l-4 -31q0 -10 -11 -10l-30 -2q-71 -8 -119.5 -60.5t-48.5 -123.5q0 -74 51.5 -128.5t124.5 -58.5q10 0 10 -10v-76q0 -10 -10 -10q-114 5 -193.5 87t-79.5 196zM392 -201q-3 8 -4 16q0 10 5 19q8 19 26.5 26.5 t35.5 -1.5q18 -7 25 -25t-1 -37q-7 -18 -25.5 -25t-35.5 1q-18 8 -26 26zM430 -25l72 267q6 18 23 28q10 6 22 6q7 0 14 -2q20 -4 30 -21t5 -38l-72 -266q-7 -26 -25.5 -33.5t-35.5 0.5q-19 6 -29 22q-6 10 -6 22q0 7 2 15zM537 -375q-3 8 -3 16q0 10 5 21q8 17 26 24.5 t35 0.5q18 -7 26 -26t-1 -38q-7 -18 -26 -25q-9 -3 -17 -3q-10 0 -19 4q-19 8 -26 26zM578 -193l118 435q4 18 22 28q11 6 23 6q7 0 15 -2q19 -5 28.5 -22t3.5 -37l-116 -432q-6 -25 -24 -33q-10 -4 -22 -4q-7 0 -14 2q-36 10 -36 42q0 8 2 17zM776 -202q-4 9 -4 18t4 18 q8 19 26.5 26.5t37.5 -1.5q17 -8 24 -25.5t0 -36.5q-8 -18 -26 -25q-9 -3 -17 -3q-10 0 -20 4q-17 7 -25 25zM815 -23l72 265q5 18 22 28q10 6 22 6q7 0 15 -2q19 -5 29 -22q6 -11 6 -22q0 -7 -2 -15l-72 -264q-6 -21 -23 -30q-10 -5 -21 -5q-7 0 -15 2q-18 6 -28 23 q-7 11 -7 22q0 7 2 14z"/>
<glyph unicode="V" horiz-adv-x="1740" d="M102 281q0 99 60.5 175.5t156.5 98.5q26 118 118.5 193t213.5 75q80 0 156 -37q89 99 221 99q124 0 211.5 -88t87.5 -211q0 -108 -67 -191q22 -55 22 -114q0 -114 -78 -195.5t-192 -85.5q-11 0 -11 10v76q0 10 11 10q73 4 123.5 57.5t50.5 127.5q0 77 -54.5 131.5 t-130.5 54.5h-92q-9 0 -12 10l-4 33q-9 92 -78.5 153.5t-163.5 61.5t-162 -61.5t-79 -155.5l-4 -31q0 -8 -9 -8l-30 -4q-72 -6 -120 -59t-48 -125q0 -74 50.5 -127.5t123.5 -57.5q10 0 10 -10v-76q0 -10 -10 -10q-114 5 -192.5 86t-78.5 195zM379 -217l27 96q6 20 23 30 t36 5q20 -6 30 -23t5 -36l-27 -97q-7 -25 -24 -32t-35 -2q-19 6 -29 23q-7 12 -7 25q0 6 1 11zM440 0q0 20 13.5 33.5t33.5 13.5t34 -13.5t14 -33.5t-14 -33.5t-34 -13.5t-33.5 13.5t-13.5 33.5zM477 145l25 97q6 19 23 28.5t36 3.5q20 -5 30.5 -22t4.5 -37l-27 -96 q-6 -20 -24 -29t-35 -4q-20 6 -30 22q-6 10 -5 22q0 7 2 15zM524 -393l27 96q6 19 23.5 29t35.5 4q20 -4 30 -21.5t5 -38.5l-27 -96q-6 -22 -23 -30q-11 -5 -22 -5q-7 0 -14 2q-20 6 -30 23q-7 11 -7 24q0 6 2 13zM584 982q0 20 14 34q14 15 34 14.5t34 -14.5l36 -37 q14 -13 14 -34t-14 -34q-15 -17 -35.5 -14.5t-31.5 14.5l-37 37q-14 14 -14 34zM586 -178q0 20 13.5 33.5t33.5 13.5t33.5 -13.5t13.5 -33.5t-13.5 -33.5t-33.5 -13.5t-33.5 13.5t-13.5 33.5zM623 -33l24 96q6 20 23.5 30t36.5 5q20 -6 30 -23t4 -36l-26 -96 q-7 -25 -24.5 -32.5t-35.5 -2.5q-19 4 -29 22q-6 11 -5 22q0 8 2 15zM762 -219l24 96q6 20 23.5 30t38.5 5q19 -6 29 -23.5t4 -35.5l-27 -97q-11 -37 -43 -37q-7 0 -16 2q-19 5 -29 23q-6 11 -6 23q0 7 2 14zM821 -2q0 20 13.5 33.5t33.5 13.5t33.5 -13.5t13.5 -33.5 t-13.5 -33.5t-33.5 -13.5t-33.5 13.5t-13.5 33.5zM858 143l27 97q5 19 22 28.5t37 3.5q19 -5 29 -22t4 -37l-25 -96q-6 -21 -23 -30q-10 -5 -21 -5q-7 0 -15 2q-20 6 -30 22q-7 11 -7 24q0 6 2 13zM887 729q74 -74 96 -166h18q115 0 199 -84q31 51 31 107q0 83 -59 141.5 t-144 58.5q-84 0 -141 -57zM981 1030v117q0 20 13.5 34.5t33.5 14.5t34.5 -14.5t14.5 -34.5v-117q0 -20 -14.5 -33.5t-34.5 -13.5t-33.5 13.5t-13.5 33.5zM1296 900q0 20 13 34l82 84q15 14 35 14t34 -14q14 -15 14 -35.5t-14 -34.5l-82 -82q-21 -17 -38.5 -15t-30.5 15 q-13 14 -13 34zM1341 224q0 21 15 34q14 15 34 14.5t33 -14.5l37 -35q14 -15 14 -35t-14 -34q-17 -14 -34.5 -14t-34.5 14l-35 36q-15 13 -15 34zM1425 586q0 20 15 34.5t35 14.5h116q20 0 33.5 -14.5t13.5 -34.5t-13.5 -34.5t-33.5 -14.5h-116q-20 0 -35 14.5t-15 34.5z "/>
<glyph unicode="W" d="M102 281q0 100 61 176t156 100q26 116 119.5 191t214.5 75q118 0 210 -73t120 -187h18q117 0 200 -82.5t83 -199.5q0 -113 -79 -195t-193 -86q-11 0 -11 10v76q0 10 11 10q73 4 124.5 58.5t51.5 126.5q0 76 -55 131t-132 55h-92q-10 0 -10 10l-4 33q-10 92 -80 154.5 t-162 62.5q-94 0 -163 -62.5t-78 -156.5l-4 -29q0 -10 -11 -10l-30 -4q-71 -6 -119.5 -59t-48.5 -125t51.5 -126.5t124.5 -58.5q10 0 10 -10v-76q0 -10 -10 -10q-114 4 -193.5 86t-79.5 195zM381 -215l25 96q6 19 23.5 29t37.5 4q19 -5 29 -22t4 -37l-27 -97q-6 -21 -23 -29 t-36 -3t-29 22q-6 11 -6 22q0 7 2 15zM440 0q0 20 13.5 33.5t33.5 13.5t34 -13.5t14 -33.5t-14 -33.5t-34 -13.5t-33.5 13.5t-13.5 33.5zM477 145l27 97q4 20 21 30q11 6 24 6q7 0 14 -2q19 -6 29 -23.5t4 -35.5l-25 -96q-7 -25 -24 -32.5t-35 -2.5q-20 6 -30 23 q-6 11 -7 23q0 6 2 13zM526 -393l25 96q6 19 23.5 29t37.5 4q19 -5 29 -22.5t4 -37.5l-27 -96q-5 -20 -21 -30q-10 -6 -22 -5q-8 0 -16 2q-19 5 -29 23q-6 11 -6 22q0 7 2 15zM586 -178q0 20 13.5 34.5t33.5 14.5t33.5 -14.5t13.5 -34.5q0 -19 -13.5 -33t-33.5 -14t-33.5 14 t-13.5 33zM623 -33l26 96q4 20 21.5 30t38.5 5q19 -6 28.5 -23t3.5 -36l-24 -96q-6 -23 -22.5 -31.5t-37.5 -3.5q-19 4 -29 22q-7 12 -7 24q0 7 2 13zM762 -217l26 96q5 19 22.5 29t37.5 4q20 -4 30 -21t5 -38l-27 -97q-10 -34 -41 -34q-8 0 -18 2q-20 4 -30 21q-7 11 -7 24 q0 7 2 14zM821 -2q0 20 14.5 33.5t34.5 13.5q19 0 33.5 -13.5t14.5 -33.5t-14.5 -33.5t-33.5 -13.5q-20 0 -34.5 13.5t-14.5 33.5zM858 143l27 97q6 20 23 30q11 6 23 6q6 0 13 -2q20 -6 30 -23q7 -11 6 -24q0 -6 -1 -12l-27 -96q-6 -22 -24 -31q-12 -6 -23 -6q-6 0 -12 2 q-21 6 -31 23q-6 11 -6 23q0 6 2 13z"/>
<glyph unicode="X" horiz-adv-x="1738" d="M102 283q0 99 61.5 175.5t155.5 98.5q26 117 119.5 191.5t214.5 74.5q80 0 152 -35q89 99 221 99q123 0 211 -87.5t88 -211.5q0 -106 -68 -187q27 -62 27 -118q0 -114 -79 -196.5t-193 -86.5q-11 0 -11 10v78q0 10 11 10q74 5 125 58.5t51 126.5q0 76 -55 130t-132 54 h-92q-10 0 -10 10l-4 33q-10 93 -79.5 155t-162.5 62q-94 0 -163 -62.5t-78 -154.5l-4 -29q0 -10 -11 -10l-30 -4q-71 -6 -119.5 -59t-48.5 -125q0 -73 51 -126.5t125 -58.5q10 0 10 -10v-78q0 -10 -10 -10q-114 5 -193.5 87t-79.5 196zM530 -360l140 366h-123q-11 0 -8 12 l123 326q5 8 12 8h168q14 0 8 -12l-131 -240h125q6 0 7.5 -4t-1.5 -8l-303 -448h-17zM580 984.5q0 20.5 14 35.5q15 14 35 14t35 -14l36 -37q14 -13 14 -34t-14 -36q-17 -14 -34.5 -13.5t-34.5 13.5l-37 37q-14 14 -14 34.5zM885 733q75 -71 98 -168h18q114 0 197 -80 q29 50 29 103q0 85 -59 144t-142 59t-141 -58zM977 1034v117q0 20 14.5 33.5t34.5 13.5t33.5 -13.5t13.5 -33.5v-117q0 -22 -13.5 -35.5t-33.5 -13.5q-21 0 -35 14t-14 35zM1292 902q0 21 15 36l82 82q13 14 33 14t34 -14q15 -13 15 -34t-15 -36l-82 -82q-19 -14 -35.5 -14 t-31.5 14q-15 13 -15 34zM1338 228q0 20 14 34t34 14t35 -14l35 -37q15 -13 15 -33.5t-15 -35.5q-14 -14 -34 -14t-33 14l-37 37q-14 15 -14 35zM1421 588q0 20 14.5 34.5t34.5 14.5h117q20 0 34.5 -14.5t14.5 -34.5t-14.5 -33.5t-34.5 -13.5h-117q-20 0 -34.5 13.5 t-14.5 33.5z"/>
<glyph unicode="Y" d="M102 283q0 -114 79.5 -196t193.5 -87q10 0 10 10v78q0 10 -10 10q-74 5 -125 58.5t-51 126.5q0 72 48.5 125t119.5 59l30 4q11 0 11 10l4 29q9 92 78 154.5t163 62.5q93 0 162.5 -62t79.5 -155l4 -33q0 -10 10 -10h92q77 0 132 -54t55 -130q0 -73 -51 -126.5t-125 -58.5 q-11 0 -11 -10v-78q0 -10 11 -10q114 4 193 86.5t79 196.5q0 117 -83 199.5t-200 82.5h-18q-28 113 -120 185.5t-210 72.5q-121 0 -214.5 -74.5t-119.5 -191.5q-94 -22 -155.5 -98.5t-61.5 -175.5zM530 -360l140 366h-123q-11 0 -8 12l123 326q5 8 12 8h168q10 0 10 -6 q0 -2 -2 -6l-131 -240h125q6 0 8 -4v-3t-2 -5l-303 -448h-17z"/>
<glyph unicode="Z" horiz-adv-x="1624" d="M102 47q0 -20 14.5 -33.5t35.5 -13.5h1071q20 0 34.5 13.5t14.5 33.5q0 21 -14 35t-35 14h-1071q-21 0 -35.5 -14t-14.5 -35zM252 227q0 -20 14.5 -34.5t34.5 -14.5h1071q20 0 33.5 14.5t13.5 34.5t-13.5 33.5t-33.5 13.5h-1071q-20 0 -34.5 -13.5t-14.5 -33.5zM260 367 q22 73 77 125t128 69q26 117 119.5 192.5t214.5 75.5q118 0 209.5 -73t119.5 -187h19q96 0 170.5 -56.5t99.5 -143.5q3 -13 -8 -13h-82q-6 0 -12 9q-22 48 -67 78t-101 30h-92q-11 0 -11 10l-4 33q-10 92 -79.5 153.5t-161.5 61.5q-94 0 -163.5 -62t-78.5 -155l-4 -29 q0 -10 -10 -10l-31 -4q-49 -4 -89.5 -33t-60.5 -73q-6 -9 -12 -9h-82q-9 0 -9 8q0 2 1 5v-2zM352 -129q0 -20 14.5 -34.5t34.5 -14.5h1072q20 0 34.5 14.5t14.5 34.5t-14.5 33.5t-34.5 13.5h-1072q-20 0 -34.5 -13.5t-14.5 -33.5z"/>
<glyph unicode="[" horiz-adv-x="595" d="M104 461.5q0 20.5 13 34.5l147 145q14 15 34 15t34 -15l147 -145q13 -14 13 -34.5t-13 -35.5q-35 -27 -69 0l-64 66v-398q0 -20 -13.5 -34.5t-33.5 -14.5q-21 0 -35 14t-14 35v398l-64 -66q-15 -14 -35.5 -14t-33.5 14q-13 15 -13 35.5z"/>
<glyph unicode="\" d="M102 283q0 99 61.5 175.5t155.5 98.5q26 116 119.5 191t214.5 75q118 0 210 -73t120 -187h18q117 0 200 -81.5t83 -198.5q0 -114 -79 -196.5t-193 -86.5q-11 0 -11 10v76q0 10 11 10q73 4 124.5 58.5t51.5 128.5q0 75 -55.5 129.5t-131.5 54.5h-92q-10 0 -10 10l-4 33 q-10 92 -80 154.5t-162 62.5q-94 0 -163 -62.5t-78 -154.5l-4 -33q0 -10 -11 -10h-30q-71 -8 -119.5 -60.5t-48.5 -123.5q0 -74 51.5 -128.5t124.5 -58.5q10 0 10 -10v-76q0 -10 -10 -10q-114 5 -193.5 87t-79.5 196zM498 247q0 21 14 34l147 147q13 14 34 14t34 -14 l147 -147q14 -13 14 -35.5t-14 -34.5q-35 -26 -69 0l-64 63v-225q0 -20 -14.5 -34.5t-34.5 -14.5t-33.5 14.5t-13.5 34.5v227l-63 -65q-15 -13 -35.5 -13t-34.5 13q-14 15 -14 36z"/>
<glyph unicode="]" horiz-adv-x="598" d="M104 240q0 20 15 34q13 14 33 14t34 -14l64 -63v397q0 20 14.5 33.5t34.5 13.5t34.5 -13.5t14.5 -33.5v-397l64 63q14 14 34 14t33 -14q15 -14 15 -34t-15 -33l-145 -148q-14 -14 -35 -14t-35 14l-145 148q-15 13 -15 33z"/>
<glyph unicode="a" horiz-adv-x="1427" d="M102 283q0 99 60.5 175.5t156.5 98.5q26 116 118.5 191t213.5 75q87 0 154 -37q93 99 221 99q124 0 211.5 -87.5t87.5 -211.5q0 -109 -65 -189q24 -60 24 -114q0 -117 -83 -200t-200 -83h-618q-117 0 -199 83t-82 200zM199 283q0 -76 54.5 -131.5t129.5 -55.5h618 q76 0 130.5 55t54.5 132q0 75 -54.5 129.5t-130.5 54.5h-102l-6 43q-9 92 -78.5 154.5t-163.5 62.5q-92 0 -161 -62.5t-80 -154.5l-4 -41l-39 -2q-72 -8 -120 -60t-48 -124zM887 731q73 -73 96 -168h18q117 0 199 -82q29 50 29 105q0 85 -59 143.5t-144 58.5q-79 0 -139 -57 z"/>
<glyph unicode="b" horiz-adv-x="1839" d="M102 49q0 20 15 34.5t35 14.5h749q20 0 33.5 -14.5t13.5 -34.5t-13.5 -34.5t-33.5 -14.5h-749q-20 0 -35 14.5t-15 34.5zM252 221q0 20 14.5 34.5t34.5 14.5h750q20 0 33.5 -14.5t13.5 -34.5t-13.5 -33.5t-33.5 -13.5h-750q-20 0 -34.5 13.5t-14.5 33.5zM352 -127 q0 20 14.5 34.5t34.5 14.5h750q20 0 34.5 -14.5t14.5 -34.5t-14.5 -33.5t-34.5 -13.5h-750q-20 0 -34.5 13.5t-14.5 33.5zM524 354l2 11q22 72 77.5 123.5t129.5 68.5q25 117 118 191.5t214 74.5q82 0 154 -35q89 95 219 95q123 0 211 -87.5t88 -211.5q0 -102 -66 -187 q25 -55 25 -114q0 -117 -83 -200t-200 -83h-393q-10 0 -10 10v78q0 10 10 10h393q77 0 131.5 54.5t54.5 130.5t-54.5 130t-131.5 54h-92q-10 0 -10 10l-4 33q-10 94 -79 155.5t-163 61.5t-163.5 -62.5t-78.5 -154.5l-4 -29q0 -10 -10 -10l-31 -4q-50 -4 -90 -34.5t-59 -76.5 q-5 -8 -13 -8h-81q-11 0 -11 6zM1298 731q76 -73 97 -166h18q114 0 199 -82q28 48 28 101q0 84 -59 143t-143 59q-82 0 -140 -55z"/>
<glyph unicode="c" horiz-adv-x="1859" d="M102 47q0 21 14.5 35t35.5 14h749q20 0 33.5 -13.5t13.5 -35.5q0 -20 -13.5 -33.5t-33.5 -13.5h-749q-21 0 -35.5 13.5t-14.5 33.5zM252 221q0 20 14.5 33.5t34.5 13.5h750q20 0 33.5 -13.5t13.5 -33.5t-13.5 -34.5t-33.5 -14.5h-750q-20 0 -34.5 14.5t-14.5 34.5z M352 -129q0 20 14.5 33.5t34.5 13.5h750q20 0 34.5 -13.5t14.5 -33.5t-14.5 -34.5t-34.5 -14.5h-750q-20 0 -34.5 14.5t-14.5 34.5zM526 358v2q22 73 77.5 125.5t129.5 69.5q25 117 118 192.5t214 75.5q68 0 135 -28q50 84 140 122q56 24 115 24q35 0 71 -9l47 -14 q11 -4 8 -13l-8 -35q-6 -25 -6 -49q-1 -51 27 -97q40 -68 118 -91l35 -12q9 -3 9 -9q0 -2 -1 -4l-10 -39q-26 -93 -86 -147q37 -66 37 -141q0 -117 -83 -199t-200 -82h-393q-10 0 -10 10v76q0 10 10 10h393q76 0 131 55t55 130q0 77 -54.5 131.5t-131.5 54.5h-92 q-10 0 -10 10l-4 33q-11 92 -79.5 153.5t-162.5 61.5t-163.5 -62t-78.5 -155l-4 -29q0 -10 -10 -10l-31 -4q-50 -4 -90 -34.5t-59 -76.5q-5 -8 -13 -8h-81q-10 0 -10 8q0 2 1 4zM1282 745q90 -77 113 -182h18q106 0 182 -67q29 29 43 61q-80 38 -126 117q-42 73 -42 154v14 q-7 1 -15 1q-48 1 -92 -23q-51 -26 -81 -75z"/>
<glyph unicode="d" horiz-adv-x="1689" d="M102 49q0 20 15 34.5t35 14.5h458q63 0 107.5 -45t44.5 -108t-44.5 -107.5t-107.5 -44.5t-108 45q-14 14 -14 34t14 34q14 15 34 15t35 -15q17 -17 39 -17t39 17t17 39q0 23 -17 39t-39 16h-458q-20 0 -35 14.5t-15 34.5zM102 221q0 20 15 34.5t35 14.5h749 q22 0 38.5 16.5t16.5 39.5t-16.5 39t-38.5 16q-23 0 -39 -16q-15 -13 -35.5 -13t-33.5 13t-13 33.5t13 35.5q43 43 108 43q63 0 107.5 -44t44.5 -107t-44.5 -107.5t-107.5 -44.5h-749q-21 0 -35.5 13.5t-14.5 33.5zM377 360v2q22 72 78 125t129 70q25 117 117.5 191.5 t213.5 74.5q84 0 152 -35q89 99 221 99q123 0 211 -87.5t88 -211.5q0 -105 -65 -189q24 -52 24 -116q0 -117 -82.5 -200t-199.5 -83h-394q-10 0 -10 10v78q0 10 10 10h394q77 0 131.5 54.5t54.5 130.5t-54.5 130t-131.5 54h-93q-10 0 -10 10l-4 33q-10 94 -79 155.5 t-163 61.5t-163 -62.5t-78 -154.5l-4 -29q0 -10 -11 -10l-30 -4q-51 -4 -91 -34.5t-59 -76.5q-5 -8 -12 -8h-82q-9 0 -9 7q0 2 1 5zM1147 733q78 -75 98 -168h19q116 0 198 -82q29 53 29 105q0 83 -60 143t-143 60q-80 0 -141 -58z"/>
<glyph unicode="e" horiz-adv-x="1705" d="M102 49q0 20 15 34.5t35 14.5h458q63 0 107.5 -45t44.5 -108t-44.5 -107.5t-107.5 -44.5t-108 45q-14 14 -14 34t14 34t34 14t35 -14q17 -17 39 -17t39 16.5t17 39.5t-17 39t-39 16h-458q-20 0 -35 14.5t-15 34.5zM102 221q0 20 15 34.5t35 14.5h749q22 0 38.5 16.5 t16.5 39.5t-16.5 39t-38.5 16q-23 0 -39 -16q-15 -13 -35.5 -13t-33.5 13t-13 33.5t13 35.5q43 43 108 43q63 0 107.5 -44t44.5 -107t-44.5 -107.5t-107.5 -44.5h-749q-21 0 -35.5 13.5t-14.5 33.5zM377 360v2q22 72 78 125t129 70q25 116 117.5 191t213.5 75q73 0 132 -26 q51 84 141 122q56 24 115 24q35 0 71 -9l45 -14q11 -4 8 -13l-8 -35q-5 -23 -5 -45q0 -53 29 -101q41 -68 118 -91l34 -12q8 -4 8 -9q0 -2 -1 -4l-9 -39q-22 -86 -86 -147q39 -64 39 -141q0 -117 -82.5 -200t-199.5 -83h-394q-10 0 -10 10v78q0 10 10 10h394 q77 0 131.5 54.5t54.5 130.5t-54.5 130t-131.5 54h-93q-10 0 -10 10l-4 33q-10 94 -79 155.5t-163 61.5t-163 -62.5t-78 -154.5l-4 -29q0 -10 -11 -10l-30 -4q-51 -4 -91 -34.5t-59 -76.5q-5 -8 -12 -8h-82q-9 0 -9 7q0 2 1 5zM1130 748q92 -75 115 -183h19q105 0 180 -65 q28 25 43 59q-82 38 -128 117q-41 70 -41 148q0 10 1 20q-9 1 -18 1q-47 0 -91 -22q-52 -26 -80 -75z"/>
<glyph unicode="f" horiz-adv-x="1429" d="M102 283q0 99 61.5 175.5t155.5 98.5q26 117 119.5 191.5t214.5 74.5q84 0 152 -35q93 99 223 99q123 0 211 -88t88 -211q0 -108 -67 -191q24 -53 24 -114q0 -114 -79 -196.5t-193 -86.5q-11 0 -11 10v78q0 10 11 10q74 5 125 58.5t51 126.5q0 76 -55 130t-132 54h-92 q-10 0 -10 10l-4 33q-10 93 -79.5 155t-162.5 62q-94 0 -163 -62.5t-78 -154.5l-4 -29q0 -10 -11 -10l-30 -4q-71 -6 -119.5 -59t-48.5 -125q0 -73 51 -126.5t125 -58.5q10 0 10 -10v-78q0 -10 -10 -10q-114 5 -193.5 87t-79.5 196zM440 233q0 24 20.5 59t41.5 58l20 23 q9 -10 22.5 -25.5t35.5 -53t22 -61.5q0 -33 -23 -56t-57 -23t-58 23.5t-24 55.5zM610 6q0 41 33 94t67 86l33 33q5 -5 14.5 -14t32.5 -35t40.5 -50.5t32 -56.5t14.5 -57q0 -54 -39.5 -93.5t-94.5 -39.5t-94 39.5t-39 93.5zM694 387q0 16 14 39t28 38l14 15q53 -55 53 -92 q0 -23 -15.5 -38t-37.5 -15q-24 0 -40 15t-16 38zM887 731q72 -66 96 -166h18q114 0 199 -82q29 50 29 105q0 83 -59 141.5t-142 58.5q-84 0 -141 -57z"/>
<glyph unicode="g" horiz-adv-x="1445" d="M102 283q0 99 61.5 175.5t155.5 98.5q26 116 119.5 191t214.5 75q66 0 133 -26q50 82 141 120q57 24 115 24q36 0 72 -9l45 -14q11 -4 8 -13l-8 -35q-6 -24 -6 -48q0 -52 29 -98q41 -69 118 -91l33 -10q9 -3 9 -9q0 -2 -1 -4l-8 -41q-21 -83 -88 -147q39 -64 39 -139 q0 -114 -79 -196.5t-193 -86.5q-11 0 -11 10v76q0 10 11 10q73 4 124.5 58.5t51.5 128.5q0 75 -55.5 129.5t-131.5 54.5h-92q-10 0 -10 10l-4 33q-10 92 -80 154.5t-162 62.5q-94 0 -163 -62.5t-78 -154.5l-4 -31q0 -10 -11 -10l-30 -2q-71 -8 -119.5 -60.5t-48.5 -123.5 q0 -74 51.5 -128.5t124.5 -58.5q10 0 10 -10v-76q0 -10 -10 -10q-114 5 -193.5 87t-79.5 196zM440 233q0 24 20.5 58.5t41.5 56.5l20 23q9 -9 22.5 -24.5t35.5 -52.5t22 -61q0 -34 -23 -56.5t-57 -22.5t-58 23t-24 56zM610 6q0 25 13.5 56t33 57.5t39.5 49t34 35.5l13 13 q5 -5 14.5 -13.5t32.5 -34.5t40.5 -50.5t32 -56t14.5 -56.5q0 -55 -39 -94t-95 -39q-55 0 -94 38.5t-39 94.5zM694 385q0 16 14 39t28 38l14 15q53 -55 53 -92q0 -22 -15.5 -37.5t-37.5 -15.5q-23 0 -39.5 15.5t-16.5 37.5zM868 745q88 -69 115 -182h18q105 0 183 -65 q28 25 43 59q-82 40 -129 118q-41 70 -41 150v17q-8 1 -15 1q-49 0 -92 -23q-51 -25 -82 -75z"/>
<glyph unicode="h" horiz-adv-x="1429" d="M102 283q0 99 61.5 175.5t155.5 98.5q26 116 119.5 191t214.5 75q84 0 154 -37q89 99 221 99q123 0 211 -87.5t88 -211.5q0 -106 -67 -189q24 -53 24 -114q0 -114 -79 -196.5t-193 -86.5q-11 0 -11 10v76q0 10 11 10q73 4 124.5 58.5t51.5 128.5q0 76 -55 130t-132 54 h-92q-10 0 -10 10l-4 33q-10 92 -80 154.5t-162 62.5q-94 0 -163 -62.5t-78 -154.5l-4 -31q0 -10 -11 -10l-30 -2q-71 -8 -119.5 -60.5t-48.5 -123.5q0 -74 51.5 -128.5t124.5 -58.5q10 0 10 -10v-76q0 -10 -10 -10q-114 5 -193.5 87t-79.5 196zM465 49q0 20 13.5 33.5 t33.5 13.5t33.5 -13.5t13.5 -33.5t-13.5 -33.5t-33.5 -13.5t-33.5 13.5t-13.5 33.5zM465 -158q0 20 13.5 34.5t33.5 14.5t33.5 -14.5t13.5 -34.5t-13.5 -33.5t-33.5 -13.5t-33.5 13.5t-13.5 33.5zM647 -59q0 19 14 33t33 14q20 0 34.5 -14t14.5 -33q0 -20 -14.5 -35 t-34.5 -15q-19 0 -33 15t-14 35zM647 145q0 20 14 34t33 14q20 0 34.5 -14t14.5 -34t-14.5 -33.5t-34.5 -13.5q-19 0 -33 13.5t-14 33.5zM647 -268q0 19 14 33t33 14q20 0 34.5 -14t14.5 -33q0 -20 -14.5 -34.5t-34.5 -14.5q-19 0 -33 14.5t-14 34.5zM831 49q0 20 14 33.5 t34 13.5t33.5 -13.5t13.5 -33.5t-13.5 -33.5t-33.5 -13.5t-34 13.5t-14 33.5zM831 -158q0 20 14 34.5t34 14.5t33.5 -14.5t13.5 -34.5t-13.5 -33.5t-33.5 -13.5t-34 13.5t-14 33.5zM887 731q72 -69 96 -168h18q117 0 199 -82q29 53 29 105q0 84 -58.5 143t-142.5 59 t-141 -57z"/>
<glyph unicode="i" horiz-adv-x="1447" d="M102 281q0 100 61 176t156 100q26 116 119.5 191t214.5 75q68 0 135 -28q50 84 140 122q56 24 115 24q35 0 71 -9l45 -14q11 -4 8 -13l-6 -35q-6 -25 -6 -49q-1 -51 27 -97q40 -68 118 -91l35 -10q9 -3 9 -9q0 -2 -1 -4l-10 -41q-22 -89 -86 -147q37 -66 37 -141 q0 -113 -79 -195t-193 -86q-11 0 -11 10v76q0 10 11 10q73 4 124.5 58.5t51.5 126.5q0 76 -55 131t-132 55h-92q-10 0 -10 10l-4 33q-10 92 -80 154.5t-162 62.5q-94 0 -163 -62.5t-78 -156.5l-4 -29q0 -10 -11 -10l-30 -4q-71 -6 -119.5 -59t-48.5 -125t51.5 -126.5 t124.5 -58.5q10 0 10 -10v-76q0 -10 -10 -10q-114 4 -193.5 86t-79.5 195zM465 49q0 19 13.5 33t33.5 14t33.5 -14t13.5 -33q0 -20 -13.5 -34.5t-33.5 -14.5t-33.5 14.5t-13.5 34.5zM465 -158q0 20 13.5 33.5t33.5 13.5t33.5 -13.5t13.5 -33.5t-13.5 -33.5t-33.5 -13.5 t-33.5 13.5t-13.5 33.5zM647 -61q0 20 14 34.5t33 14.5q20 0 34.5 -14.5t14.5 -34.5t-14.5 -34t-34.5 -14q-19 0 -33 14t-14 34zM647 145q0 20 14 34t33 14q20 0 34.5 -14t14.5 -34t-14.5 -33.5t-34.5 -13.5q-19 0 -33 13.5t-14 33.5zM647 -270q0 20 14 34.5t33 14.5 q20 0 34.5 -14.5t14.5 -34.5t-14.5 -33.5t-34.5 -13.5q-19 0 -33 13.5t-14 33.5zM831 49q0 19 14 33t34 14t33.5 -14t13.5 -33q0 -20 -13.5 -34.5t-33.5 -14.5t-34 14.5t-14 34.5zM831 -158q0 20 14 33.5t34 13.5t33.5 -13.5t13.5 -33.5t-13.5 -33.5t-33.5 -13.5t-34 13.5 t-14 33.5zM870 745q90 -77 113 -182h18q107 0 183 -67q29 29 43 61q-81 39 -127 117q-41 70 -41 150v18q-9 1 -18 1q-47 -1 -91 -23q-52 -26 -80 -75z"/>
<glyph unicode="j" horiz-adv-x="1429" d="M102 281q0 99 61.5 175.5t155.5 98.5q26 117 119.5 192.5t214.5 75.5q78 0 154 -37q89 99 221 99q123 0 211 -88t88 -211q0 -108 -67 -191q24 -53 24 -114q0 -114 -79 -195t-193 -86q-11 0 -11 10v76q0 10 11 10q74 5 125 58.5t51 126.5q0 76 -55 131t-132 55h-92 q-10 0 -10 10l-4 33q-10 92 -79.5 153.5t-162.5 61.5q-94 0 -163 -62t-78 -155l-4 -29q0 -10 -11 -10l-30 -4q-71 -6 -119.5 -59t-48.5 -125q0 -73 51 -126.5t125 -58.5q10 0 10 -10v-76q0 -10 -10 -10q-114 5 -193.5 86t-79.5 195zM389 -172l113 412q6 20 23 29.5t36 4.5 q20 -6 30 -23t5 -36l-113 -414q-6 -20 -24 -28.5t-35 -3.5q-37 11 -37 44q0 7 2 15zM537 -346l159 586q4 20 21.5 29.5t38.5 4.5q19 -6 28.5 -23t3.5 -36l-159 -586q-4 -23 -21 -32q-10 -5 -22 -5q-8 0 -17 2q-20 6 -29 24q-5 10 -5 21q0 7 2 15zM774 -172l113 412 q4 20 21 29.5t38 4.5q19 -6 29 -23.5t4 -35.5l-113 -414q-6 -20 -24 -29q-11 -5 -22 -5q-7 0 -13 2q-18 5 -29 22q-6 11 -6 23q0 7 2 14zM887 729q72 -66 96 -166h18q117 0 199 -82q29 50 29 105q0 83 -59 141.5t-142 58.5q-84 0 -141 -57z"/>
<glyph unicode="k" horiz-adv-x="1447" d="M102 283q0 99 61.5 175.5t155.5 98.5q26 116 119.5 191t214.5 75q66 0 133 -26q50 84 142 122q57 24 116 24q36 0 72 -9l45 -14q11 -4 8 -13l-8 -35q-6 -24 -5 -47q0 -51 28 -99q42 -69 119 -91l32 -10q9 -3 9 -9q0 -2 -1 -4l-8 -41q-21 -86 -90 -149q39 -64 39 -139 q0 -114 -79 -196.5t-193 -86.5q-11 0 -11 10v76q0 10 11 10q73 4 124.5 58.5t51.5 128.5q0 75 -55.5 129.5t-131.5 54.5h-92q-10 0 -10 10l-4 33q-10 92 -80 154.5t-162 62.5q-94 0 -163 -62.5t-78 -154.5l-4 -31q0 -10 -11 -10l-30 -2q-71 -8 -119.5 -60.5t-48.5 -123.5 q0 -74 51.5 -128.5t124.5 -58.5q10 0 10 -10v-76q0 -10 -10 -10q-114 5 -193.5 87t-79.5 196zM389 -172l113 414q6 19 23 28.5t36 3.5q20 -4 30 -21t5 -38l-113 -412q-7 -25 -24 -32t-35 -2q-20 6 -30 23q-7 11 -7 24q0 6 2 12zM537 -344l159 586q5 19 22.5 28.5t37.5 3.5 q19 -5 28.5 -22t3.5 -37l-159 -586q-5 -21 -23 -29q-12 -5 -23 -5q-7 0 -14 2q-18 5 -28 22q-6 11 -6 22q0 7 2 15zM774 -172l113 414q5 19 22 28.5t37 3.5q19 -5 29 -22t4 -37l-113 -412q-4 -25 -22 -33q-10 -4 -20 -4q-8 0 -17 3q-35 11 -35 42q0 8 2 17zM870 745 q89 -73 113 -182h18q105 0 183 -65q25 22 45 61q-83 40 -129 118q-42 70 -41 150v17q-7 1 -15 1q-50 1 -94 -23q-52 -26 -80 -77z"/>
<glyph unicode="l" horiz-adv-x="1427" d="M102 281q0 101 60.5 176.5t156.5 97.5q26 117 119.5 192.5t214.5 75.5q78 0 154 -37q89 95 219 95q123 0 211 -88t88 -211q0 -103 -65 -187q24 -60 24 -114q0 -114 -79 -195t-193 -86q-11 0 -11 10v76q0 10 11 10q73 4 123.5 58.5t50.5 126.5q0 77 -54.5 131.5 t-130.5 54.5h-92q-10 0 -10 10l-4 33q-10 92 -79.5 153.5t-162.5 61.5q-94 0 -163.5 -61.5t-79.5 -155.5l-4 -31q0 -8 -9 -8l-30 -4q-72 -6 -120 -59t-48 -125t51.5 -126.5t124.5 -58.5q10 0 10 -10v-76q0 -10 -10 -10q-114 5 -193.5 86t-79.5 195zM410 -90l16 59 q6 19 23.5 29t35.5 4q20 -4 30 -21t5 -38l-16 -58q-7 -27 -27 -35t-33 0q-21 7 -30 24q-6 11 -6 23q0 6 2 13zM485 182l17 60q6 20 23 29.5t36 4.5q20 -6 30 -23.5t5 -37.5l-16 -57q-10 -37 -43 -37q-8 0 -17 2q-20 3 -30 21q-6 11 -7 25q0 6 2 13zM555 -268l16 59 q6 19 23.5 29t36.5 4q20 -4 30 -21.5t5 -38.5l-17 -57q-6 -23 -22 -32q-10 -5 -21 -5q-8 0 -16 2q-20 6 -30 23q-7 11 -7 24q0 6 2 13zM631 4l16 59q6 19 23.5 29t36.5 4q20 -4 29.5 -21t4.5 -38l-16 -57q-7 -25 -24 -32.5t-35 -2.5q-20 6 -30 23q-7 11 -7 24q0 6 2 12z M793 -92l16 57q4 20 21 30t38 5q19 -5 29 -22t4 -37l-16 -60q-6 -23 -24 -31q-11 -5 -21 -4l-15 2q-19 6 -29 23q-6 10 -5 22q0 7 2 15zM870 180l17 58q5 20 22 30t37 4q20 -4 30 -21t5 -38l-16 -59q-5 -22 -23 -30q-11 -5 -23 -5q-7 0 -14 2q-20 4 -30 21q-7 11 -7 24 q0 7 2 14zM887 729q73 -70 96 -166h18q117 0 199 -82q27 46 27 101q0 83 -59 142.5t-142 59.5q-81 0 -139 -55z"/>
<glyph unicode="m" horiz-adv-x="1449" d="M102 283q0 99 62 175.5t158 98.5q25 116 117.5 191t213.5 75q71 0 135 -28q50 85 142 123q57 24 117 24q35 0 71 -8l8 -2l48 -14l-11 -46q-5 -22 -5 -44q0 -53 30 -102q42 -69 117 -91l43 -12l-11 -45v-7q-21 -87 -90 -149q37 -66 37 -139q0 -114 -79 -196.5t-193 -86.5 q-11 0 -11 10v78q0 10 11 10q74 5 125 58.5t51 126.5q0 76 -55 130t-132 54h-92q-10 0 -10 10l-4 33q-10 93 -79.5 155t-162.5 62q-94 0 -163 -62.5t-78 -154.5l-4 -29q0 -10 -11 -10l-30 -4q-71 -8 -119.5 -60.5t-48.5 -123.5q0 -73 51 -126.5t125 -58.5q10 0 10 -10v-78 q0 -10 -10 -10q-114 5 -193.5 87t-79.5 196zM412 -88l14 57q6 20 23.5 30t37.5 5q19 -6 29 -23.5t4 -35.5l-16 -60q-6 -21 -24 -29.5t-36 -2.5q-18 7 -28 23q-6 10 -6 21q0 7 2 15zM487 184l15 58q6 20 23 29.5t38 4.5q19 -5 29 -22t4 -37l-16 -59q-6 -21 -23 -29.5 t-37 -3.5q-23 6 -31 22q-5 9 -5 20q0 8 3 17zM557 -266l14 57q6 20 23.5 30t38.5 5q19 -6 29 -23.5t4 -35.5l-17 -60q-7 -24 -25 -32q-11 -5 -21 -5q-7 0 -13 2q-19 6 -29 24q-6 11 -6 23q0 7 2 15zM633 6l14 57q6 20 23.5 30t38.5 5q19 -6 28.5 -23t3.5 -36l-16 -59 q-6 -21 -23 -30t-36 -3q-19 7 -29 23q-6 10 -6 21q0 7 2 15zM793 -92l16 59q5 19 22 29t37 4q20 -4 30 -21t5 -38l-16 -58q-7 -25 -25 -33q-10 -4 -21 -4q-7 0 -14 2q-36 10 -36 43q0 8 2 17zM872 180l15 60q6 20 23 29.5t36 4.5q20 -6 30 -23t5 -36l-16 -59q-7 -24 -25 -32 q-11 -5 -21 -5q-7 0 -14 2q-19 6 -29 23q-6 10 -6 22q0 7 2 14zM872 745q88 -78 111 -180h18q106 0 185 -69q25 25 45 63q-82 40 -128 118q-41 69 -41 148q0 10 1 21h-12q-53 0 -99 -24q-52 -28 -80 -77z"/>
<glyph unicode="n" horiz-adv-x="1427" d="M102 272q0 101 60.5 177t156.5 98q26 118 118.5 193t213.5 75q80 0 156 -37q87 96 219 96q124 0 211.5 -87t87.5 -212q0 -105 -65 -186q24 -63 24 -117q0 -108 -74 -188.5t-180 -91.5l-254 -314q-13 -20 -34.5 -21t-32.5 13q-15 15 -17.5 35t10.5 35l267 332q12 16 51 16 q70 7 118 60t48 124q0 77 -54.5 132t-130.5 55h-92q-9 0 -12 10l-4 33q-9 92 -78.5 153.5t-163.5 61.5q-93 0 -162 -62t-79 -155l-4 -31q0 -8 -9 -8l-30 -4q-72 -6 -120 -59.5t-48 -125.5q0 -76 54.5 -130t129.5 -54l-64 -82q-7 -6 -14 -4q-90 27 -146.5 100.5t-56.5 169.5z M237 -294q-3 9 -3 18q0 10 4 20q8 17 26 24.5t37 0.5q18 -7 25.5 -26t-0.5 -38q-7 -18 -26 -25t-38 1q-18 7 -25 25zM313 -469q9 19 27 26.5t37 -1.5q18 -7 25 -26t-1 -36q-7 -18 -25 -25q-9 -3 -18 -3q-10 0 -20 4q-16 8 -24 26q-4 9 -4 18t3 17zM350 -106l268 331 q12 15 32.5 17.5t35.5 -9.5t17.5 -32t-9.5 -35l-268 -334q-15 -19 -34 -21t-36 13q-18 18 -18 37q0 16 12 33zM404 -359v7q0 16 10 28l381 474q12 15 32 16.5t35 -10.5q17 -12 19 -32.5t-11 -35.5l-381 -473q-13 -20 -33.5 -21t-33.5 13q-16 14 -18 34zM608 -399q9 19 27 26 t37 -2q18 -7 25 -24.5t-1 -36.5t-26 -26q-9 -3 -17 -3q-10 0 -20 4q-17 9 -25 27q-4 10 -3 18q0 9 3 17zM887 721q73 -69 96 -166h18q117 0 199 -82q29 50 29 102q0 85 -59 144t-144 59q-82 0 -139 -57z"/>
<glyph unicode="o" horiz-adv-x="1447" d="M102 281q0 99 60.5 175t156.5 99q26 116 119.5 191t214.5 75q69 0 133 -28q50 85 142 123q57 24 117 25q35 0 71 -9q1 -1 4 -2t4 -2l47 -13l-10 -45q-5 -23 -5 -45q0 -53 29 -101q41 -68 118 -91l43 -15l-11 -43v-6q-21 -86 -90 -149q39 -64 39 -139q0 -109 -73.5 -189.5 t-180.5 -91.5l-252 -315q-17 -21 -36 -21q-16 0 -33 14q-15 12 -17.5 32.5t10.5 35.5l269 334q10 12 49 16q70 6 118 59.5t48 125.5q0 75 -54.5 129.5t-130.5 54.5h-92q-10 0 -10 10l-4 33q-10 92 -80 154.5t-162 62.5q-94 0 -163 -62.5t-80 -154.5l-4 -31q0 -10 -11 -10 l-28 -4q-72 -6 -120 -58.5t-48 -123.5q0 -76 54.5 -131.5t129.5 -55.5l-64 -80q-7 -6 -14 -4q-89 25 -146 100t-57 171zM238 -250q7 19 25.5 26t37.5 -1q18 -7 25.5 -26t-0.5 -38q-7 -18 -26 -25t-38 1q-17 8 -24 26q-4 9 -4 18t4 19zM314 -498q-3 8 -4 17q0 10 5 20 q8 17 25.5 24.5t36.5 0.5q19 -9 25 -27t-1 -37q-7 -18 -25 -25q-9 -3 -17 -3q-9 0 -19 4q-18 8 -26 26zM339 -136v6q0 17 11 30l268 331q12 17 32.5 19t35.5 -10t17.5 -32.5t-9.5 -35.5l-268 -334q-19 -19 -37.5 -18.5t-30.5 12.5q-17 12 -19 32zM405 -352v5q0 17 11 30 l379 473q12 15 32 17t37 -11q15 -12 16.5 -32.5t-10.5 -35.5l-381 -473q-15 -19 -34 -19q-15 0 -33 13q-15 13 -17 33zM608 -391q9 17 27 24t37 0q19 -9 25.5 -26.5t-1.5 -36.5q-8 -18 -26 -26q-9 -4 -17 -3q-9 0 -18 4q-19 7 -27 26q-4 10 -4 19t4 19zM870 743 q87 -74 113 -182h18q107 0 183 -67q25 25 45 63q-81 39 -128 117q-42 71 -42 151v17q-7 1 -15 1q-50 1 -94 -23q-52 -26 -80 -77z"/>
<glyph unicode="p" horiz-adv-x="1429" d="M102 283q0 99 61.5 175.5t155.5 98.5q26 116 119.5 191t214.5 75q84 0 154 -37q89 99 221 99q123 0 211 -88t88 -211q0 -110 -67 -189q24 -53 24 -114q0 -114 -79 -196.5t-193 -86.5q-11 0 -11 10v76q0 10 11 10q73 4 124.5 58.5t51.5 128.5q0 75 -55.5 129.5 t-131.5 54.5h-92q-10 0 -10 10l-4 33q-10 92 -80 154.5t-162 62.5q-94 0 -163 -62.5t-78 -154.5l-4 -31q0 -10 -11 -10l-30 -2q-71 -8 -119.5 -60.5t-48.5 -123.5q0 -65 40 -115.5t101 -65.5l61 164q5 8 13 8h168q14 0 8 -12l-141 -264h124q6 0 8 -4t-1 -8l-304 -449h-16 l137 367h-121q-11 0 -8 12l37 96q-89 25 -146 100t-57 171zM537 -344l159 586q5 19 22.5 28.5t37.5 3.5q19 -5 28.5 -22t3.5 -37l-159 -586q-6 -21 -23 -29q-10 -5 -22 -5q-7 0 -15 2q-19 5 -29 22q-5 10 -5 22q0 7 2 15zM774 -172l113 414q5 19 22 28.5t37 3.5 q19 -5 29 -22t4 -37l-113 -412q-7 -25 -24 -32q-10 -4 -20 -4q-8 0 -15 2q-20 6 -29 23q-6 10 -6 22q0 7 2 14zM887 731q72 -69 96 -168h18q117 0 199 -82q29 50 29 105q0 83 -59 141.5t-142 58.5t-141 -55z"/>
<glyph unicode="q" horiz-adv-x="1447" d="M102 283q0 99 61.5 175.5t155.5 98.5q26 116 119.5 191t214.5 75q65 0 135 -26q50 84 141 122q57 24 115 24q36 0 72 -9q31 -8 45 -14q11 -4 8 -13l-8 -35q-5 -23 -5 -45q0 -53 29 -101q41 -69 118 -91l32 -10q9 -3 9 -9q0 -2 -1 -4l-8 -41q-21 -85 -88 -149 q37 -66 37 -139q0 -114 -79 -196.5t-193 -86.5q-11 0 -11 10v78q0 10 11 10q74 5 125 58.5t51 126.5q0 76 -55 130t-132 54h-92q-10 0 -10 10l-4 33q-10 92 -80 154.5t-162 62.5q-94 0 -163 -62.5t-78 -154.5l-4 -29q0 -10 -11 -10l-30 -4q-71 -8 -119.5 -60.5t-48.5 -123.5 q0 -64 40 -115t101 -66l61 164q5 8 13 8h168q14 0 8 -12l-141 -264h124q6 0 8 -4t-1 -8l-304 -449h-16l137 367h-121q-11 0 -8 12l37 96q-89 27 -146 101.5t-57 169.5zM537 -344l159 586q5 19 22.5 28.5t37.5 3.5q19 -5 28.5 -22t3.5 -37l-159 -584q-9 -36 -43 -36 q-8 0 -17 2q-19 5 -29 22q-5 10 -5 22q0 7 2 15zM774 -172l113 414q5 19 22 28.5t37 3.5q19 -5 29 -22t4 -37l-113 -412q-10 -36 -41 -36q-8 0 -18 2q-20 5 -29 21q-6 10 -6 22q0 7 2 16zM870 745q89 -73 113 -180h18q103 0 183 -67q30 27 45 61q-81 40 -127 117 q-41 70 -41 150v18q-8 1 -15 1q-50 0 -95 -23q-52 -27 -81 -77z"/>
<glyph unicode="r" horiz-adv-x="1427" d="M102 283q0 99 61.5 175.5t155.5 98.5q26 117 119.5 191.5t214.5 74.5q84 0 154 -37q41 46 98.5 71.5t120.5 25.5q123 0 211 -87.5t88 -211.5q0 -103 -65 -187q24 -53 24 -114q0 -114 -79 -196.5t-193 -86.5q-11 0 -11 10v78q0 10 11 10q74 5 125 58.5t51 126.5 q0 76 -55 130t-132 54h-92q-10 0 -10 10l-4 33q-10 93 -79.5 155t-162.5 62q-94 0 -163 -62.5t-78 -154.5l-4 -29q0 -10 -11 -10l-30 -4q-71 -6 -119.5 -59t-48.5 -125q0 -64 40 -115t101 -66l63 166q3 8 11 8h168q14 0 8 -12l-141 -266h124q6 0 8 -4t-1 -8l-304 -449h-16 l137 369h-121q-11 0 -8 12l37 94q-89 27 -146 102t-57 169zM569 -264l15 57q6 20 23 30t36 5q20 -6 30 -23t5 -36l-16 -60q-6 -21 -23 -29q-11 -5 -23 -6q-7 0 -14 2q-18 4 -28 22q-7 11 -7 24q0 7 2 14zM645 8l14 58q6 20 23.5 29.5t36.5 4.5q20 -4 30 -21t5 -38l-17 -59 q-6 -21 -23.5 -30t-35.5 -3q-19 7 -29 23q-6 10 -6 21q0 7 2 15zM805 -88l16 57q4 20 21.5 30t38.5 5q19 -6 28.5 -23t3.5 -36l-14 -60q-7 -21 -23 -29q-10 -5 -21 -5q-7 0 -15 2q-19 5 -29 22q-7 12 -7 26q0 5 1 11zM883 184l16 58q6 20 23 29.5t36 4.5q20 -6 30 -23t5 -36 l-16 -59q-6 -21 -23 -30q-10 -5 -21 -5q-7 0 -15 2q-20 7 -30 23q-7 11 -7 23q0 6 2 13zM887 731q71 -68 96 -166h18q114 0 199 -82q27 47 27 101q0 84 -58.5 143t-142.5 59q-81 0 -139 -55z"/>
<glyph unicode="s" horiz-adv-x="1447" d="M102 283q0 99 61.5 175.5t155.5 98.5q26 116 119.5 191t214.5 75q65 0 135 -26q50 82 140 120q56 24 115 23q35 0 71 -8l45 -14q11 -4 8 -13l-6 -35q-6 -24 -6 -48q-1 -50 27 -97q40 -69 118 -92l35 -10q9 -3 9 -9q0 -2 -1 -4l-10 -39q-21 -87 -86 -149q37 -66 37 -139 q0 -114 -79 -196.5t-193 -86.5q-11 0 -11 10v78q0 10 11 10q74 5 125 58.5t51 126.5q0 76 -55 130t-132 54h-92q-10 0 -10 10l-4 33q-10 92 -80 154.5t-162 62.5q-94 0 -163 -62.5t-78 -154.5l-4 -29q0 -10 -11 -10l-30 -4q-71 -8 -119.5 -60.5t-48.5 -123.5q0 -64 40 -115 t101 -66l61 164q5 8 13 8h168q14 0 8 -12l-141 -264h124q6 0 8 -4t-1 -8l-304 -449h-16l137 367h-121q-11 0 -8 12l37 96q-89 27 -146 101.5t-57 169.5zM569 -264l15 57q6 20 23 30t36 5q20 -6 30 -23t5 -36l-16 -60q-6 -21 -24 -30q-10 -5 -21 -5q-7 0 -15 2q-19 6 -29 23 q-6 11 -6 22q0 7 2 15zM645 8l14 58q6 20 23.5 29.5t36.5 4.5q20 -6 30 -23t5 -36l-17 -59q-10 -35 -44 -35q-7 0 -15 2q-21 4 -30 21q-5 10 -5 22q0 8 2 16zM805 -90l16 59q4 20 21.5 30t38.5 5q19 -6 28.5 -23.5t3.5 -37.5l-14 -58q-10 -38 -40 -38q-9 0 -19 3 q-20 7 -30 24q-6 11 -7 23q0 6 2 13zM870 745q89 -73 113 -180h18q103 0 183 -67q28 25 43 59q-81 40 -127 118q-41 70 -41 151v18h-12q-51 0 -97 -24q-51 -26 -80 -75zM883 184l16 58q6 20 23 30q11 6 23 6q6 0 13 -2q20 -6 30 -23q7 -11 6 -24q0 -6 -1 -12l-16 -59 q-10 -37 -42 -37q-8 0 -17 2q-22 6 -31 23q-6 11 -6 24q0 6 2 14z"/>
<glyph unicode="t" horiz-adv-x="1429" d="M102 283q0 99 61.5 175.5t155.5 98.5q26 116 119.5 191t214.5 75q84 0 154 -37q89 99 221 99q123 0 211 -88t88 -211q0 -106 -67 -189q24 -53 24 -114q0 -114 -79 -196.5t-193 -86.5q-11 0 -11 10v76q0 10 11 10q73 4 124.5 58.5t51.5 128.5q0 76 -55 130t-132 54h-92 q-10 0 -10 10l-4 33q-10 92 -80 154.5t-162 62.5q-94 0 -163 -62.5t-78 -154.5l-4 -29q0 -10 -11 -10l-30 -4q-71 -8 -119.5 -60.5t-48.5 -123.5q0 -74 51.5 -128.5t124.5 -58.5q10 0 10 -10v-76q0 -10 -10 -10q-114 5 -193.5 87t-79.5 196zM392 -201q-3 8 -4 17q0 10 5 20 q8 17 26.5 24.5t35.5 0.5q19 -9 25 -27t-1 -37q-7 -18 -25.5 -25t-35.5 1q-18 8 -26 26zM430 -25l72 267q6 19 23 28.5t36 3.5q20 -4 30 -21t5 -38l-72 -264q-7 -24 -25 -32t-36 -3q-19 5 -29 22q-6 11 -6 22q0 7 2 15zM537 -375q-3 8 -3 16q0 10 5 21q7 18 25.5 25.5 t35.5 -0.5q18 -7 26 -26t-1 -38q-7 -18 -26 -25q-9 -3 -17 -3q-10 0 -19 4q-19 8 -26 26zM578 -190l118 432q5 19 22.5 28.5t37.5 3.5q19 -5 28.5 -22t3.5 -37l-116 -432q-6 -21 -23 -29q-11 -5 -23 -6q-7 0 -14 2q-20 4 -30 20q-6 10 -6 23q0 8 2 17zM775 -202q-3 9 -3 18 q0 10 4 20q8 17 26.5 24.5t37.5 0.5q17 -9 24 -27t0 -37q-8 -18 -26 -25q-9 -3 -17 -3q-10 0 -20 4q-19 7 -26 25zM815 -23l72 265q5 19 22 28.5t37 3.5q19 -5 29 -22t4 -37l-72 -264q-7 -22 -23 -31q-9 -5 -19 -5q-8 0 -17 3q-35 12 -35 43q0 7 2 16zM887 731 q71 -68 96 -166h18q115 0 199 -84q29 50 29 105q0 83 -59 142.5t-142 59.5q-81 0 -141 -57z"/>
<glyph unicode="u" horiz-adv-x="1447" d="M102 283q0 99 61.5 175.5t155.5 98.5q26 116 119.5 191t214.5 75q71 0 135 -28q51 84 142 122q55 23 111 23q37 0 75 -10l45 -15q11 -4 8 -12l-8 -33q-5 -23 -4 -45q0 -53 28 -102q41 -69 118 -92l32 -10q9 -3 9 -9q0 -2 -1 -4l-8 -39q-21 -85 -88 -149q37 -66 37 -137 q0 -114 -79 -196.5t-193 -86.5q-11 0 -11 10v76q0 10 11 10q73 4 124.5 58.5t51.5 128.5q0 75 -55.5 129.5t-131.5 54.5h-92q-10 0 -10 10l-4 33q-10 92 -80 154.5t-162 62.5q-94 0 -163 -62.5t-78 -154.5l-4 -31q0 -10 -11 -10l-30 -2q-71 -8 -119.5 -60.5t-48.5 -123.5 q0 -74 51.5 -128.5t124.5 -58.5q10 0 10 -10v-76q0 -10 -10 -10q-114 5 -193.5 87t-79.5 196zM392 -201q-3 8 -4 16q0 10 5 19q8 19 26.5 26.5t35.5 -1.5q18 -7 25 -25t-1 -37q-7 -18 -25.5 -25t-35.5 1q-18 8 -26 26zM430 -25l72 267q6 19 23 28.5t36 3.5q20 -4 30 -21 t5 -38l-72 -266q-6 -23 -22.5 -32t-38.5 -1q-19 5 -29 22q-6 11 -6 22q0 7 2 15zM537 -375q-3 8 -3 16q0 10 5 21q8 17 26 24.5t35 0.5q18 -7 26 -26t-1 -38q-7 -18 -26 -25q-9 -3 -17 -3q-10 0 -19 4q-19 8 -26 26zM578 -193l118 435q5 19 22.5 28.5t37.5 3.5 q19 -5 28.5 -22t3.5 -37l-116 -432q-7 -25 -26 -33q-11 -5 -20 -5q-7 0 -14 3q-36 12 -36 44q0 7 2 15zM776 -202q-4 9 -4 18t4 18q8 19 26.5 26.5t37.5 -1.5q17 -8 24 -25.5t0 -36.5q-8 -18 -26 -25q-9 -3 -17 -3q-10 0 -20 4q-17 7 -25 25zM815 -23l72 265q5 19 22 28.5 t37 3.5q19 -5 29 -22t4 -37l-72 -264q-10 -35 -43 -35q-8 0 -16 2q-18 5 -28 21q-7 10 -7 23q0 7 2 15zM872 743q88 -74 111 -180h18q109 0 185 -67q27 24 43 61q-81 38 -127 116q-41 70 -41 151v18q-7 1 -15 1q-50 1 -94 -23q-52 -26 -80 -77z"/>
<glyph unicode="v" horiz-adv-x="1431" d="M102 281q0 100 61 176t156 100q26 116 119.5 191t214.5 75q78 0 154 -37q42 46 100.5 72.5t122.5 26.5q123 0 211 -87.5t88 -211.5q0 -106 -69 -191q24 -53 24 -114q0 -113 -79 -195t-193 -86q-11 0 -11 10v76q0 10 11 10q73 4 124.5 58.5t51.5 126.5q0 76 -55 131 t-132 55h-92q-10 0 -10 10l-4 33q-10 92 -80 154.5t-162 62.5q-94 0 -163 -62.5t-78 -156.5l-4 -29q0 -10 -11 -10l-30 -4q-71 -6 -119.5 -59t-48.5 -125t51.5 -126.5t124.5 -58.5q10 0 10 -10v-76q0 -10 -10 -10q-114 4 -193.5 86t-79.5 195zM381 -215l25 96q6 19 23.5 29 t37.5 4q19 -5 29 -22t4 -37l-27 -97q-6 -21 -23 -29t-36 -3t-29 22q-6 11 -6 22q0 7 2 15zM440 0q0 20 13.5 33.5t33.5 13.5t34 -13.5t14 -33.5t-14 -33.5t-34 -13.5t-33.5 13.5t-13.5 33.5zM477 145l27 97q4 20 21 29.5t38 4.5q19 -6 29 -23.5t4 -35.5l-25 -96 q-13 -38 -42 -38q-8 0 -17 3q-20 6 -30 23q-7 11 -7 24q0 6 2 12zM526 -393l25 96q6 19 23.5 29t37.5 4q19 -5 29 -22.5t4 -37.5l-27 -96q-6 -22 -22 -30q-10 -5 -23 -5q-7 0 -14 2q-19 5 -29 23q-6 11 -6 22q0 7 2 15zM586 -178q0 20 13.5 34.5t33.5 14.5t33.5 -14.5 t13.5 -34.5t-13.5 -33.5t-33.5 -13.5t-33.5 13.5t-13.5 33.5zM623 -33l26 96q4 20 21.5 30t38.5 5q19 -6 28.5 -23t3.5 -36l-24 -96q-7 -26 -24 -34t-36 -1q-19 6 -29 23q-6 11 -7 23q0 6 2 13zM762 -217l26 96q5 19 22.5 29t37.5 4q20 -4 30 -21t5 -38l-27 -97 q-9 -35 -40 -35q-9 0 -19 3q-20 4 -30 21q-7 11 -7 24q0 7 2 14zM821 -2q0 20 14.5 33.5t34.5 13.5q19 0 33.5 -13.5t14.5 -33.5t-14.5 -33.5t-33.5 -13.5q-20 0 -34.5 13.5t-14.5 33.5zM858 143l27 97q6 20 23 29.5t36 4.5q20 -6 30 -23t5 -36l-27 -96q-10 -38 -40 -38 q-9 0 -19 3q-37 11 -37 44q0 7 2 15zM887 729q72 -66 96 -166h18q119 0 201 -82q29 50 29 105q0 83 -59 142.5t-142 59.5q-84 0 -143 -59z"/>
<glyph unicode="w" horiz-adv-x="1447" d="M102 281q0 100 61 176t156 100q26 116 119.5 191t214.5 75q66 0 133 -26q50 84 142 123q56 24 114 24q37 0 74 -10l45 -14q11 -4 8 -13l-8 -33q-6 -24 -5 -47q0 -51 28 -99q42 -70 119 -93l32 -10q9 -3 9 -9q0 -2 -1 -4l-8 -39q-20 -86 -90 -149q39 -67 39 -143 q0 -113 -79 -195t-193 -86q-11 0 -11 10v76q0 10 11 10q73 4 124.5 58.5t51.5 126.5q0 76 -55 131t-132 55h-92q-10 0 -10 10l-4 33q-10 92 -80 154.5t-162 62.5q-94 0 -163 -62.5t-78 -156.5l-4 -29q0 -10 -11 -10l-30 -4q-71 -6 -119.5 -59t-48.5 -125t51.5 -126.5 t124.5 -58.5q10 0 10 -10v-76q0 -10 -10 -10q-114 4 -193.5 86t-79.5 195zM381 -215l25 96q6 19 23.5 29t37.5 4q19 -5 29 -22t4 -37l-27 -97q-6 -21 -24.5 -29.5t-34.5 -2.5q-18 6 -28 23q-7 11 -7 22q0 7 2 14zM440 0q0 20 13.5 33.5t33.5 13.5t34 -13.5t14 -33.5 t-14 -33.5t-34 -13.5t-33.5 13.5t-13.5 33.5zM477 145l27 97q4 20 21 29.5t38 4.5q19 -6 29 -23.5t4 -35.5l-25 -96q-7 -25 -24 -32.5t-35 -2.5q-37 11 -37 43q0 7 2 16zM526 -393l25 96q6 19 23.5 29t37.5 4q19 -5 29 -22.5t4 -37.5l-27 -96q-6 -20 -24 -29q-12 -6 -23 -6 q-6 0 -12 2q-19 5 -29 23q-7 11 -6 23q0 7 2 14zM586 -178q0 20 13.5 34.5t33.5 14.5t33.5 -14.5t13.5 -34.5q0 -19 -13.5 -33t-33.5 -14t-33.5 14t-13.5 33zM623 -33l26 96q4 20 21.5 30t38.5 5q19 -6 28.5 -23t3.5 -36l-24 -96q-6 -23 -23.5 -32t-36.5 -3q-36 12 -36 44 q0 7 2 15zM762 -217l26 96q5 19 22.5 29t37.5 4q20 -4 30 -21t5 -38l-27 -97q-6 -20 -24 -28q-11 -5 -22 -6q-6 0 -13 2q-19 6 -29 22q-7 12 -7 26q0 5 1 11zM821 -2q0 20 14.5 33.5t34.5 13.5q19 0 33.5 -13.5t14.5 -33.5t-14.5 -33.5t-33.5 -13.5q-20 0 -34.5 13.5 t-14.5 33.5zM858 143l27 97q6 20 23 29.5t36 4.5q20 -6 30 -23t5 -36l-27 -96q-10 -37 -42 -37q-8 0 -17 2q-21 6 -31 23q-6 11 -6 23q0 6 2 13zM870 745q86 -70 113 -182h18q105 0 183 -65q28 28 45 63q-83 38 -129 116q-42 70 -41 151v18q-9 1 -17 1q-48 1 -92 -23 q-52 -28 -80 -79z"/>
<glyph unicode="x" horiz-adv-x="1427" d="M102 281q0 100 61 176t156 98q26 117 119.5 192.5t214.5 75.5q82 0 152 -37q86 99 221 99q123 0 211 -87.5t88 -211.5q0 -103 -68 -187q27 -62 27 -118q0 -114 -79 -195t-193 -86q-11 0 -11 10v76q0 10 11 10q74 5 125 58.5t51 126.5q0 76 -55 131t-132 55h-92 q-10 0 -10 10l-4 33q-10 92 -79.5 153.5t-162.5 61.5q-94 0 -163 -62t-78 -155l-4 -29q0 -10 -11 -10l-30 -4q-71 -6 -119.5 -59t-48.5 -125q0 -73 51 -126.5t125 -58.5q10 0 10 -10v-76q0 -10 -10 -10q-114 5 -193.5 86t-79.5 195zM530 -362l140 368h-123q-11 0 -8 12 l123 326q5 8 12 8h168q14 0 8 -12l-131 -242h125q6 0 7.5 -4t-1.5 -8l-303 -448h-17zM885 731q74 -67 98 -168h18q114 0 197 -80q29 50 29 103q0 84 -58.5 143t-142.5 59t-141 -57z"/>
<glyph unicode="y" horiz-adv-x="1445" d="M102 283q0 99 61.5 175.5t155.5 98.5q26 117 119.5 191.5t214.5 74.5q74 0 133 -26q51 84 142 122q57 24 115 24q35 0 71 -9l45 -14q11 -4 8 -13l-8 -35q-5 -23 -5 -45q0 -53 28 -101q41 -69 118 -91l33 -10q9 -3 9 -9q0 -2 -1 -4l-8 -41q-21 -86 -88 -147 q39 -64 39 -141q0 -114 -79 -196.5t-193 -86.5q-11 0 -11 10v78q0 10 11 10q74 5 125 58.5t51 126.5q0 76 -55 130t-132 54h-92q-10 0 -10 10l-4 33q-10 93 -79.5 155t-162.5 62q-94 0 -163 -62.5t-78 -154.5l-4 -29q0 -10 -11 -10l-30 -4q-71 -6 -119.5 -59t-48.5 -125 q0 -73 51 -126.5t125 -58.5q10 0 10 -10v-78q0 -10 -10 -10q-114 5 -193.5 87t-79.5 196zM530 -360l140 366h-123q-11 0 -8 12l123 326q5 8 12 8h168q14 0 8 -12l-131 -240h125q6 0 7.5 -4t-1.5 -8l-303 -448h-17zM870 745q89 -73 113 -180h18q103 0 183 -67q29 29 43 61 q-81 40 -127 117q-41 70 -41 150v18q-7 1 -15 1q-49 0 -94 -23q-51 -27 -80 -77z"/>
<glyph unicode="z" horiz-adv-x="1884" d="M102 47q0 21 14.5 35t35.5 14h1071q21 0 35 -14t14 -35q0 -20 -14.5 -33.5t-34.5 -13.5h-1071q-21 0 -35.5 13.5t-14.5 33.5zM252 227q0 20 14.5 33.5t34.5 13.5h1071q20 0 33.5 -13.5t13.5 -33.5t-13.5 -34.5t-33.5 -14.5h-1071q-20 0 -34.5 14.5t-14.5 34.5zM260 369 q52 152 205 192q26 117 119.5 192.5t214.5 75.5q79 0 153 -36q87 96 219 96q125 0 212 -87.5t87 -211.5q0 -109 -65 -189l12 -32q3 -13 -8 -13h-82q-6 0 -12 9q-22 48 -67 78t-101 30h-92q-11 0 -11 10l-4 33q-10 92 -79.5 153.5t-161.5 61.5q-94 0 -163.5 -62t-78.5 -155 l-4 -29q0 -10 -10 -10l-31 -4q-49 -4 -89.5 -33t-60.5 -73q-6 -9 -12 -9h-82q-9 0 -9 8q0 2 1 5zM352 -129q0 20 14.5 33.5t34.5 13.5h1072q20 0 34.5 -13.5t14.5 -33.5t-14.5 -34.5t-34.5 -14.5h-1072q-20 0 -34.5 14.5t-14.5 34.5zM728 986q0 20 13 34q13 15 34 15t34 -15 l37 -35q14 -15 14 -36t-14 -34q-15 -15 -34 -15t-34 15l-37 37q-13 14 -13 34zM1032 735q72 -66 96 -166h19q117 0 199 -82q28 48 28 103q0 84 -59.5 143.5t-143.5 59.5q-81 0 -139 -58zM1124 1034v117q0 20 13.5 34.5t33.5 14.5t35 -14.5t15 -34.5v-117q0 -20 -14.5 -33.5 t-35.5 -13.5q-20 0 -33.5 13.5t-13.5 33.5zM1438 904q0 20 14 34l84 84q14 14 34 14t34 -14t14 -34.5t-14 -35.5l-82 -82q-21 -17 -39 -15t-31 15q-14 14 -14 34zM1484 229q0 20 15 35q13 14 34 14t34 -14l37 -37q14 -13 14 -33.5t-14 -35.5q-17 -14 -35.5 -14t-32.5 14 l-37 37q-15 14 -15 34zM1569 590q0 20 14.5 34.5t34.5 14.5h117q20 0 33.5 -14.5t13.5 -34.5t-13.5 -34.5t-33.5 -14.5h-117q-20 0 -34.5 14.5t-14.5 34.5z"/>
<glyph unicode="{" horiz-adv-x="802" d="M102 301q0 109 71.5 192.5t178.5 102.5l-22 20q-14 14 -14 34.5t14 35.5q15 14 35.5 14t33.5 -14l105 -106q14 -11 14 -33q0 -24 -14 -35l-105 -104q-21 -17 -38.5 -15t-30.5 15q-14 14 -14 34t14 33l22 21q-61 -4 -106 -63.5t-45 -131.5q0 -84 58.5 -143.5t141.5 -59.5 q84 0 143.5 59.5t59.5 143.5q0 20 14.5 34.5t34.5 14.5t33.5 -14.5t13.5 -34.5q0 -125 -87 -212t-212 -87q-123 0 -211 87.5t-88 211.5z"/>
<glyph unicode="}" horiz-adv-x="651" d="M102 299q0 120 81 205.5t200 93.5l-21 20q-15 14 -15 34.5t15 35.5q14 14 34 14t34 -14l105 -106q14 -11 14 -33q0 -24 -14 -35l-105 -104q-14 -14 -35 -14t-33 14q-14 15 -14.5 34t14.5 33l23 23q-75 0 -130.5 -60.5t-55.5 -140.5q0 -84 59 -143.5t143 -59.5 q20 0 34 -13.5t14 -33.5t-14 -34.5t-34 -14.5q-125 0 -212 87t-87 212z"/>
<glyph unicode="¡" horiz-adv-x="542" d="M102 700q0 -70 50 -120t120 -50q69 0 118.5 50t49.5 120t-49.5 120t-118.5 50q-70 0 -120 -50t-50 -120zM184 700q0 37 25.5 62.5t62.5 25.5q36 0 62 -26t26 -62t-26 -62t-62 -26q-37 0 -62.5 25.5t-25.5 62.5z"/>
<glyph unicode="·" horiz-adv-x="1081" d="M102 438q0 -181 128.5 -309.5t310.5 -128.5q181 0 309.5 128t128.5 310t-128.5 310.5t-309.5 128.5t-310 -128.5t-129 -310.5zM199 438q0 141 100.5 241.5t241.5 100.5t241.5 -100.5t100.5 -241.5t-100.5 -241.5t-241.5 -100.5t-241.5 100.5t-100.5 241.5zM383 297 q-3 -6 0.5 -9t9.5 -1l342 145q6 2 6 6t-6 6l-342 146q-6 2 -9.5 -1t-0.5 -9l51 -136q3 -6 0 -12z"/>
<glyph unicode="¿" horiz-adv-x="1081" d="M102 438q0 -181 128.5 -309.5t310.5 -128.5q181 0 309.5 128t128.5 310t-128.5 310.5t-309.5 128.5t-310 -128.5t-129 -310.5zM199 438q0 141 100.5 241.5t241.5 100.5t241.5 -100.5t100.5 -241.5t-100.5 -241.5t-241.5 -100.5t-241.5 100.5t-100.5 241.5zM389 586 l146 -342q1 -6 6 -6t6 6l145 342q2 6 -1 9.5t-9 0.5l-135 -51q-6 -3 -12 0l-136 51q-6 3 -9 -0.5t-1 -9.5z"/>
<glyph unicode=" " horiz-adv-x="682"/>
<glyph unicode=" " horiz-adv-x="1365"/>
<glyph unicode=" " horiz-adv-x="682"/>
<glyph unicode=" " horiz-adv-x="1365"/>
<glyph unicode=" " horiz-adv-x="455"/>
<glyph unicode=" " horiz-adv-x="341"/>
<glyph unicode=" " horiz-adv-x="227"/>
<glyph unicode=" " horiz-adv-x="227"/>
<glyph unicode=" " horiz-adv-x="170"/>
<glyph unicode=" " horiz-adv-x="273"/>
<glyph unicode=" " horiz-adv-x="75"/>
<glyph unicode="–" horiz-adv-x="665" d="M102 170v207q0 20 14 34.5t34 14.5q21 0 35 -14t14 -35v-90l280 280q13 13 34 13t36 -13q13 -15 13 -34.5t-13 -34.5l-281 -281h90q20 0 34 -13.5t14 -33.5q0 -22 -14 -35.5t-34 -13.5h-208q-20 0 -34 13.5t-14 35.5z"/>
<glyph unicode="—" horiz-adv-x="665" d="M104 169q0 21 13 34l280 280h-90q-20 0 -34.5 14.5t-14.5 34.5t14.5 35t34.5 15h207q20 0 34.5 -15t14.5 -35v-206q0 -20 -14.5 -35t-34.5 -15t-33.5 14.5t-13.5 35.5v90l-281 -281q-21 -17 -38.5 -15t-30.5 15t-13 34z"/>
<glyph unicode="‘" horiz-adv-x="634" d="M102 215q0 -89 63 -152t152 -63t152 63t63 152q0 54 -25 100.5t-69 77.5v420q0 50 -35 85.5t-86 35.5t-85.5 -35.5t-34.5 -85.5v-420q-45 -31 -70 -77.5t-25 -100.5zM176 215q0 40 19.5 73t54.5 52l12 6q6 3 6 12v455q0 20 14.5 33.5t34.5 13.5q21 0 35.5 -13.5 t14.5 -33.5v-455q0 -9 6 -12l12 -6q35 -19 55.5 -52t20.5 -73q0 -58 -42.5 -100.5t-101.5 -42.5q-58 0 -99.5 42t-41.5 101zM213 217q0 40 27 70t65 35v305q0 5 3.5 8.5t8.5 3.5t9 -4t4 -8v-305q38 -5 65 -35t27 -70q0 -44 -31 -75t-74 -31t-73.5 31t-30.5 75z"/>
<glyph unicode="“" horiz-adv-x="634" d="M102 215q0 -89 63 -152t152 -63t152 63t63 152q0 54 -25 100.5t-69 77.5v420q0 50 -35 85.5t-86 35.5t-85.5 -35.5t-34.5 -85.5v-420q-45 -31 -70 -77.5t-25 -100.5zM176 215q0 40 19.5 73t54.5 52l12 6q6 3 6 12v455q0 20 14.5 33.5t34.5 13.5q21 0 35.5 -13.5 t14.5 -33.5v-455q0 -9 6 -12l12 -6q35 -19 55.5 -52t20.5 -73q0 -58 -42.5 -100.5t-101.5 -42.5q-58 0 -99.5 42t-41.5 101z"/>
<glyph unicode="”" horiz-adv-x="634" d="M213 217q0 40 27 70t65 35v305q0 5 3.5 8.5t8.5 3.5t9 -4t4 -8v-305q38 -5 65 -35t27 -70q0 -44 -31 -75t-74 -31t-73.5 31t-30.5 75z"/>
<glyph unicode="•" d="M102 283q0 99 61.5 175.5t155.5 98.5q26 116 119.5 191t214.5 75q118 0 210 -73t120 -187h18q117 0 200 -81.5t83 -198.5q0 -114 -79 -196.5t-193 -86.5q-11 0 -11 10v76q0 10 11 10q73 4 124.5 58.5t51.5 128.5q0 75 -55.5 129.5t-131.5 54.5h-92q-10 0 -10 10l-4 33 q-10 92 -80 154.5t-162 62.5q-94 0 -163 -62.5t-78 -154.5l-4 -31q0 -10 -11 -10l-30 -2q-71 -8 -119.5 -60.5t-48.5 -123.5q0 -74 51.5 -128.5t124.5 -58.5q10 0 10 -10v-76q0 -10 -10 -10q-114 5 -193.5 87t-79.5 196zM498 196q0 20 14 33t34.5 13t35.5 -13l63 -63v227 q0 20 13.5 33.5t33.5 13.5t34.5 -13.5t14.5 -33.5v-227l64 63q15 13 35 13t34 -13t14 -33t-14 -34l-147 -148q-11 -14 -35 -14q-22 0 -33 14l-147 148q-14 14 -14 34z"/>
<glyph unicode="…" horiz-adv-x="1488" d="M102 395q0 -20 14.5 -33.5t35.5 -13.5h749q20 0 33.5 13.5t13.5 33.5q0 22 -13.5 35.5t-33.5 13.5h-749q-21 0 -35.5 -14t-14.5 -35zM252 575q0 -20 14.5 -34.5t34.5 -14.5h750q20 0 33.5 14.5t13.5 34.5t-13.5 34t-33.5 14h-750q-20 0 -34.5 -14t-14.5 -34zM352 219 q0 -20 14.5 -34.5t34.5 -14.5h750q20 0 34.5 14.5t14.5 34.5t-14.5 33.5t-34.5 13.5h-750q-20 0 -34.5 -13.5t-14.5 -33.5zM1008 395q0 -20 13.5 -33.5t35.5 -13.5h280q20 0 34.5 13.5t14.5 33.5q0 21 -14 35t-35 14h-280q-22 0 -35.5 -13.5t-13.5 -35.5z"/>
<glyph unicode=" " horiz-adv-x="273"/>
<glyph unicode="‹" horiz-adv-x="1200" d="M102 692q0 -70 50 -120t120 -50q69 0 118.5 50t49.5 120t-49.5 120t-118.5 50q-70 0 -120 -50t-50 -120zM184 692q0 37 25.5 62.5t62.5 25.5q36 0 62 -26t26 -62t-26 -62t-62 -26q-37 0 -62.5 25.5t-25.5 62.5zM596 49v795q0 10 10 10h445q20 0 33.5 -14.5t13.5 -34.5 t-13.5 -34.5t-33.5 -14.5h-357v-254h267q21 0 35 -14t14 -35q0 -20 -14.5 -35t-34.5 -15h-267v-354q0 -20 -14.5 -34.5t-34.5 -14.5t-34.5 14.5t-14.5 34.5z"/>
<glyph unicode="›" horiz-adv-x="1179" d="M102 700q0 -70 50 -120t120 -50q69 0 118.5 50t49.5 120t-49.5 120t-118.5 50q-70 0 -120 -50t-50 -120zM184 700q0 37 25.5 62.5t62.5 25.5q36 0 62 -26t26 -62t-26 -62t-62 -26q-37 0 -62.5 25.5t-25.5 62.5zM547 287v301q0 53 15 101.5t45.5 91t85 68t126.5 25.5 q59 0 106.5 -15t73.5 -34t44.5 -44t23.5 -37.5t8 -21.5v-1q5 -20 -6 -37.5t-31 -21.5t-37 5.5t-22 28.5q-1 5 -4.5 12.5t-14.5 20t-27.5 22.5t-46.5 17.5t-67 7.5q-45 0 -78.5 -14.5t-51 -35t-28.5 -48.5t-13.5 -48.5t-2.5 -41.5v-301q0 -21 2.5 -42t13.5 -49t28.5 -48.5 t51 -35t78.5 -14.5q37 0 67 8t46.5 18t27.5 22.5t14.5 19.5t4.5 12q4 20 21.5 31t37.5 6q20 -4 31 -21.5t6 -37.5q-33 -100 -136 -137q-53 -19 -120 -19q-72 0 -127 26t-85 69t-45 91.5t-15 100.5z"/>
<glyph unicode=" " horiz-adv-x="341"/>
<glyph unicode="" horiz-adv-x="880" d="M0 0v881h881v-881h-881z"/>
</font>
</defs></svg>